+0.00000E+0	+0.00000E+0	-3.59101E-3	-1.79550E-7
+1.47000E-2	+1.40930E-2	+3.93366E-1	+4.06689E-3
+2.95000E-2	+2.82790E-2	+6.51393E-1	+1.09668E-2
+4.42000E-2	+4.23635E-2	+6.19196E-1	+2.04009E-2
+5.90000E-2	+5.65354E-2	+4.57148E-1	+2.79037E-2
+7.37000E-2	+7.06002E-2	+3.72462E-1	+3.46865E-2
+8.85000E-2	+8.47465E-2	+3.74140E-1	+3.97521E-2
+1.03200E-1	+9.87804E-2	+2.88004E-1	+4.45436E-2
+1.18000E-1	+1.12890E-1	+2.46729E-1	+4.85634E-2
+1.32700E-1	+1.26882E-1	+2.23994E-1	+5.21459E-2
+1.47500E-1	+1.40943E-1	+2.15601E-1	+5.54062E-2
+1.62200E-1	+1.54881E-1	+1.84779E-1	+5.83686E-2
+1.76900E-1	+1.68789E-1	+1.61128E-1	+6.09717E-2
+1.91700E-1	+1.82757E-1	+1.36561E-1	+6.32778E-2
+2.06400E-1	+1.96595E-1	+1.43733E-1	+6.54181E-2
+2.21200E-1	+2.10487E-1	+1.47547E-1	+6.73767E-2
+2.35900E-1	+2.24243E-1	+1.23667E-1	+6.92679E-2
+2.50700E-1	+2.38048E-1	+9.40652E-2	+7.09686E-2
+2.65400E-1	+2.51712E-1	+7.35422E-2	+7.24867E-2
+2.80200E-1	+2.65419E-1	+1.07493E-1	+7.38912E-2
+2.94900E-1	+2.78980E-1	+1.00855E-1	+7.52487E-2
+3.09700E-1	+2.92577E-1	+7.66702E-2	+7.64916E-2
+3.24400E-1	+3.06025E-1	+7.50681E-2	+7.75751E-2
+3.39100E-1	+3.19411E-1	+7.85776E-2	+7.86294E-2
+3.53900E-1	+3.32825E-1	+5.95041E-2	+7.95998E-2
+3.68600E-1	+3.46081E-1	+5.82834E-2	+8.05300E-2
+3.83400E-1	+3.59358E-1	+5.03488E-2	+8.13832E-2
+3.98100E-1	+3.72474E-1	+4.75259E-2	+8.22064E-2
+4.12900E-1	+3.85605E-1	+5.05014E-2	+8.29885E-2
+4.27600E-1	+3.98569E-1	+4.92807E-2	+8.37071E-2
+4.42400E-1	+4.11542E-1	+5.17221E-2	+8.43904E-2
+4.57100E-1	+4.24346E-1	+5.01199E-2	+8.50255E-2
+4.71900E-1	+4.37151E-1	+4.03543E-2	+8.56242E-2
+4.86600E-1	+4.49783E-1	+2.99783E-2	+8.61860E-2
+5.01400E-1	+4.62410E-1	+2.46378E-2	+8.67082E-2
+5.16100E-1	+4.74860E-1	+1.67795E-2	+8.72055E-2
+5.30800E-1	+4.87215E-1	+1.59402E-2	+8.76743E-2
+5.45600E-1	+4.99557E-1	+1.38803E-2	+8.81102E-2
+5.60300E-1	+5.11716E-1	+1.68558E-2	+8.85302E-2
+5.75100E-1	+5.23855E-1	+2.15097E-2	+8.89304E-2
+5.89800E-1	+5.35807E-1	+2.04416E-2	+8.93221E-2
+6.04600E-1	+5.47734E-1	+1.84579E-2	+8.96943E-2
+6.19300E-1	+5.59470E-1	+2.02127E-2	+9.00562E-2
+6.34100E-1	+5.71174E-1	+1.51010E-2	+9.04064E-2
+6.48800E-1	+5.82685E-1	+1.71609E-2	+9.07405E-2
+6.63600E-1	+5.94158E-1	+1.16678E-2	+9.10573E-2
+6.78300E-1	+6.05435E-1	+1.76187E-2	+9.13558E-2
+6.93000E-1	+6.16591E-1	+2.31882E-2	+9.16356E-2
+7.07800E-1	+6.27700E-1	+2.15097E-2	+9.19022E-2
+7.22500E-1	+6.38608E-1	+1.40329E-2	+9.21678E-2
+7.37300E-1	+6.49463E-1	+1.67795E-2	+9.24208E-2
+7.52000E-1	+6.60114E-1	+2.13571E-2	+9.26719E-2
+7.66800E-1	+6.70706E-1	+2.02127E-2	+9.28892E-2
+7.81500E-1	+6.81093E-1	+1.47958E-2	+9.31141E-2
+7.96300E-1	+6.91413E-1	+8.61602E-3	+9.33250E-2
+8.11000E-1	+7.01526E-1	+1.63217E-2	+9.35240E-2
+8.25800E-1	+7.11567E-1	+8.53973E-3	+9.37137E-2
+8.40500E-1	+7.21398E-1	+1.13626E-2	+9.39133E-2
+8.55200E-1	+7.31086E-1	+1.08285E-2	+9.40812E-2
+8.70000E-1	+7.40694E-1	+1.52536E-2	+9.42579E-2
+8.84700E-1	+7.50088E-1	+1.38040E-2	+9.44201E-2
+8.99500E-1	+7.59396E-1	+9.60785E-3	+9.45832E-2
+9.14200E-1	+7.68490E-1	+1.55588E-2	+9.47376E-2
+9.29000E-1	+7.77492E-1	+1.44144E-2	+9.48863E-2
+9.43700E-1	+7.86278E-1	+9.91302E-3	+9.50239E-2
+9.58500E-1	+7.94965E-1	+7.62420E-3	+9.51619E-2
+9.73200E-1	+8.03436E-1	+3.65692E-3	+9.52871E-2
+9.88000E-1	+8.11803E-1	+9.22638E-3	+9.54200E-2
+1.00270E+0	+8.19952E-1	+1.22018E-2	+9.55370E-2
+1.01740E+0	+8.27938E-1	+6.09832E-3	+9.56457E-2
+1.03220E+0	+8.35812E-1	+3.73321E-3	+9.57662E-2
+1.04690E+0	+8.43466E-1	+3.88580E-3	+9.58732E-2
+1.06170E+0	+8.51003E-1	+6.02203E-3	+9.59765E-2
+1.07640E+0	+8.58320E-1	+8.99749E-3	+9.60732E-2
+1.09120E+0	+8.65514E-1	+6.70868E-3	+9.61712E-2
+1.10590E+0	+8.72487E-1	+4.34356E-3	+9.62630E-2
+1.12070E+0	+8.79332E-1	+6.70868E-3	+9.63513E-2
+1.13540E+0	+8.85956E-1	+7.62420E-3	+9.64331E-2
+1.15020E+0	+8.92447E-1	+3.50433E-3	+9.65144E-2
+1.16490E+0	+8.98717E-1	+6.25091E-3	+9.65886E-2
+1.17960E+0	+9.04807E-1	+1.97845E-3	+9.66627E-2
+1.19440E+0	+9.10758E-1	+6.05160E-4	+9.67305E-2
+1.20910E+0	+9.16487E-1	+1.52069E-3	+9.68007E-2
+1.22390E+0	+9.22072E-1	-4.62955E-4	+9.68614E-2
+1.23860E+0	+9.27434E-1	+5.18280E-3	+9.69246E-2
+1.25340E+0	+9.32647E-1	-8.44425E-4	+9.69788E-2
+1.26810E+0	+9.37639E-1	+9.45526E-3	+9.70312E-2
+1.28290E+0	+9.42477E-1	+5.79315E-3	+9.70887E-2
+1.29760E+0	+9.47094E-1	+2.89398E-3	+9.71356E-2
+1.31240E+0	+9.51553E-1	+5.33538E-3	+9.71830E-2
+1.32710E+0	+9.55792E-1	+6.25091E-3	+9.72212E-2
+1.34180E+0	+9.59841E-1	+3.19915E-3	+9.72617E-2
+1.35660E+0	+9.63725E-1	+5.18280E-3	+9.73024E-2
+1.37130E+0	+9.67391E-1	+3.19915E-3	+9.73325E-2
+1.38610E+0	+9.70887E-1	-1.30219E-3	+9.73650E-2
+1.40080E+0	+9.74166E-1	+6.47979E-3	+9.73943E-2
+1.41560E+0	+9.77273E-1	+1.02182E-2	+9.74290E-2
+1.43030E+0	+9.80163E-1	+1.02945E-2	+9.74474E-2
+1.44510E+0	+9.82877E-1	-1.14493E-2	+9.74748E-2
+1.45980E+0	+9.85376E-1	+7.92938E-3	+9.74979E-2
+1.47460E+0	+9.87694E-1	+5.64056E-3	+9.75037E-2
+1.48930E+0	+9.89800E-1	+1.06292E-3	+9.75219E-2
+1.50410E+0	+9.91722E-1	+6.05160E-4	+9.75340E-2
+1.51880E+0	+9.93433E-1	-2.82807E-3	+9.75406E-2
+1.53350E+0	+9.94947E-1	-7.68131E-4	+9.75488E-2
+1.54830E+0	+9.96271E-1	-6.41388E-3	+9.75609E-2
+1.56300E+0	+9.97388E-1	+1.82586E-3	+9.75582E-2
+1.57780E+0	+9.98313E-1	+2.89398E-3	+9.75527E-2
+1.59250E+0	+9.99032E-1	-5.80353E-3	+9.75560E-2
+1.60730E+0	+9.99556E-1	+2.99984E-4	+9.75581E-2
+1.62200E+0	+9.99876E-1	-3.59101E-3	+9.75515E-2
+1.63680E+0	+9.99999E-1	+1.47397E-4	+9.75404E-2
+1.65150E+0	+9.99921E-1	-1.53107E-3	+9.75289E-2
+1.66630E+0	+9.99642E-1	-6.56647E-3	+9.75149E-2
+1.68100E+0	+9.99166E-1	+9.86630E-4	+9.75028E-2
+1.69570E+0	+9.98491E-1	-2.29401E-3	+9.74869E-2
+1.71050E+0	+9.97612E-1	+6.81454E-4	+9.74743E-2
+1.72520E+0	+9.96539E-1	+6.25091E-3	+9.74521E-2
+1.74000E+0	+9.95260E-1	-5.19318E-3	+9.74399E-2
+1.75470E+0	+9.93790E-1	+7.47162E-3	+9.74224E-2
+1.76950E+0	+9.92111E-1	+7.11026E-5	+9.73977E-2
+1.78420E+0	+9.90246E-1	+1.52069E-3	+9.73820E-2
+1.79900E+0	+9.88170E-1	-2.44660E-3	+9.73572E-2
+1.81370E+0	+9.85910E-1	-3.28583E-3	+9.73326E-2
+1.82850E+0	+9.83437E-1	+5.03021E-3	+9.73097E-2
+1.84320E+0	+9.80785E-1	-7.63459E-3	+9.72947E-2
+1.85790E+0	+9.77938E-1	+1.67795E-2	+9.72587E-2
+1.87270E+0	+9.74876E-1	+7.57748E-4	+9.72195E-2
+1.88740E+0	+9.71640E-1	-2.14142E-3	+9.72033E-2
+1.90220E+0	+9.68187E-1	-5.80353E-3	+9.71755E-2
+1.91690E+0	+9.64565E-1	-3.10367E-4	+9.71438E-2
+1.93170E+0	+9.60724E-1	-1.45478E-3	+9.71095E-2
+1.94640E+0	+9.56717E-1	-5.19318E-3	+9.70708E-2
+1.96120E+0	+9.52492E-1	-1.83625E-3	+9.70363E-2
+1.97590E+0	+9.48105E-1	-2.59919E-3	+9.69992E-2
+1.99070E+0	+9.43498E-1	-2.75177E-3	+9.69552E-2
+2.00540E+0	+9.38734E-1	-1.98883E-3	+9.69136E-2
+2.02010E+0	+9.33784E-1	-6.26129E-3	+9.68712E-2
+2.03490E+0	+9.28613E-1	+1.21551E-3	+9.68295E-2
+2.04960E+0	+9.23291E-1	-8.55011E-3	+9.67805E-2
+2.06440E+0	+9.17749E-1	+1.67328E-3	+9.67303E-2
+2.07910E+0	+9.12060E-1	-3.36212E-3	+9.66763E-2
+2.09390E+0	+9.06150E-1	-4.58283E-3	+9.66254E-2
+2.10860E+0	+9.00099E-1	-2.75177E-3	+9.65682E-2
+2.12340E+0	+8.93827E-1	-4.73542E-3	+9.65113E-2
+2.13810E+0	+8.87419E-1	-9.20719E-4	+9.64522E-2
+2.15290E+0	+8.80789E-1	-1.53107E-3	+9.63953E-2
+2.16760E+0	+8.74028E-1	-8.39753E-3	+9.63296E-2
+2.18230E+0	+8.67094E-1	-3.05695E-3	+9.62608E-2
+2.19710E+0	+8.59939E-1	-2.37030E-3	+9.61946E-2
+2.21180E+0	+8.52660E-1	-3.97248E-3	+9.61188E-2
+2.22660E+0	+8.45161E-1	-5.42206E-3	+9.60475E-2
+2.24130E+0	+8.37544E-1	-5.80353E-3	+9.59722E-2
+2.25610E+0	+8.29708E-1	-3.97248E-3	+9.58924E-2
+2.27080E+0	+8.21759E-1	-6.64276E-3	+9.58072E-2
+2.28560E+0	+8.13591E-1	-4.27765E-3	+9.57239E-2
+2.30030E+0	+8.05316E-1	-5.04059E-3	+9.56359E-2
+2.31510E+0	+7.96823E-1	-3.36212E-3	+9.55392E-2
+2.32980E+0	+7.88228E-1	-9.54193E-3	+9.54464E-2
+2.34460E+0	+7.79418E-1	-1.02286E-2	+9.53477E-2
+2.35930E+0	+7.70511E-1	-8.55011E-3	+9.52495E-2
+2.37400E+0	+7.61451E-1	-8.55011E-3	+9.51430E-2
+2.38880E+0	+7.52177E-1	-9.46564E-3	+9.50324E-2
+2.40350E+0	+7.42815E-1	-8.77900E-3	+9.49163E-2
+2.41830E+0	+7.33241E-1	-8.93158E-3	+9.48032E-2
+2.43300E+0	+7.23586E-1	-9.16046E-3	+9.46715E-2
+2.44780E+0	+7.13719E-1	-9.92340E-3	+9.45425E-2
+2.46250E+0	+7.03777E-1	-4.73542E-3	+9.44113E-2
+2.47730E+0	+6.93626E-1	-8.47382E-3	+9.42730E-2
+2.49200E+0	+6.83406E-1	-1.43485E-2	+9.41330E-2
+2.50680E+0	+6.72978E-1	-7.78717E-3	+9.39820E-2
+2.52150E+0	+6.62488E-1	-9.77082E-3	+9.38264E-2
+2.53620E+0	+6.51865E-1	-8.55011E-3	+9.36633E-2
+2.55100E+0	+6.41040E-1	-1.32803E-2	+9.35001E-2
+2.56570E+0	+6.30159E-1	-9.61823E-3	+9.33292E-2
+2.58050E+0	+6.19079E-1	-7.10053E-3	+9.31422E-2
+2.59520E+0	+6.07950E-1	-1.51114E-2	+9.29488E-2
+2.61000E+0	+5.96623E-1	-1.73239E-2	+9.27611E-2
+2.62470E+0	+5.85254E-1	-1.45773E-2	+9.25628E-2
+2.63950E+0	+5.73690E-1	-1.75528E-2	+9.23442E-2
+2.65420E+0	+5.62090E-1	-1.69424E-2	+9.21256E-2
+2.66900E+0	+5.50298E-1	-1.52640E-2	+9.18886E-2
+2.68370E+0	+5.38476E-1	-1.31277E-2	+9.16526E-2
+2.69840E+0	+5.26547E-1	-1.50351E-2	+9.13970E-2
+2.71320E+0	+5.14432E-1	-1.29752E-2	+9.11339E-2
+2.72790E+0	+5.02295E-1	-9.77082E-3	+9.08554E-2
+2.74270E+0	+4.89976E-1	-1.22122E-2	+9.05762E-2
+2.75740E+0	+4.77642E-1	-1.41196E-2	+9.02667E-2
+2.77220E+0	+4.65128E-1	-1.19833E-2	+8.99556E-2
+2.78690E+0	+4.52606E-1	-1.43485E-2	+8.96237E-2
+2.80170E+0	+4.39908E-1	-2.13675E-2	+8.92831E-2
+2.81640E+0	+4.27208E-1	-2.50296E-2	+8.89128E-2
+2.83120E+0	+4.14336E-1	-3.09805E-2	+8.85319E-2
+2.84590E+0	+4.01469E-1	-4.10513E-2	+8.81238E-2
+2.86060E+0	+3.88522E-1	-5.16562E-2	+8.76954E-2
+2.87540E+0	+3.75408E-1	-5.75308E-2	+8.72154E-2
+2.89010E+0	+3.62309E-1	-5.64627E-2	+8.67169E-2
+2.90490E+0	+3.49048E-1	-3.90677E-2	+8.61985E-2
+2.91960E+0	+3.35806E-1	-3.03702E-2	+8.56531E-2
+2.93440E+0	+3.22408E-1	-3.35745E-2	+8.50797E-2
+2.94910E+0	+3.09035E-1	-4.19669E-2	+8.44674E-2
+2.96390E+0	+2.95510E-1	-5.05881E-2	+8.37974E-2
+2.97860E+0	+2.82017E-1	-5.37161E-2	+8.30746E-2
+2.99340E+0	+2.68376E-1	-5.02829E-2	+8.22992E-2
+3.00810E+0	+2.54773E-1	-6.20322E-2	+8.14692E-2
+3.02280E+0	+2.41120E-1	-7.39340E-2	+8.05797E-2
+3.03760E+0	+2.27325E-1	-6.97379E-2	+7.95747E-2
+3.05230E+0	+2.13579E-1	-7.20267E-2	+7.85222E-2
+3.06710E+0	+1.99696E-1	-7.17215E-2	+7.74001E-2
+3.08180E+0	+1.85867E-1	-9.19394E-2	+7.61364E-2
+3.09660E+0	+1.71906E-1	-8.49966E-2	+7.47788E-2
+3.11130E+0	+1.58006E-1	-1.10326E-1	+7.32816E-2
+3.12610E+0	+1.43980E-1	-1.39318E-1	+7.16231E-2
+3.14080E+0	+1.30019E-1	-1.56866E-1	+6.97723E-2
+3.15560E+0	+1.15938E-1	-1.72658E-1	+6.77141E-2
+3.17030E+0	+1.01928E-1	-1.76855E-1	+6.55038E-2
+3.18500E+0	+8.78986E-2	-1.98369E-1	+6.30088E-2
+3.19980E+0	+7.37558E-2	-2.02871E-1	+6.02358E-2
+3.21450E+0	+5.96939E-2	-2.25530E-1	+5.70821E-2
+3.22930E+0	+4.55243E-2	-2.68865E-1	+5.34844E-2
+3.24400E+0	+3.14414E-2	-3.09759E-1	+4.90922E-2
+3.25880E+0	+1.72564E-2	-4.04821E-1	+4.39518E-2
+3.27350E+0	+3.16383E-3	-4.85998E-1	+3.74455E-2
+3.28830E+0	-1.10253E-2	-7.08623E-1	+2.86481E-2
+3.30300E+0	-2.51163E-2	-7.02672E-1	+1.82737E-2
+3.31780E+0	-3.92981E-2	-6.96111E-1	+7.91655E-3
+3.33250E+0	-5.33763E-2	-6.86269E-1	-2.24716E-3
+3.34730E+0	-6.75396E-2	-6.71697E-1	-1.23039E-2
+3.36200E+0	-8.15937E-2	-4.81191E-1	-2.18257E-2
+3.37670E+0	-9.56316E-2	-4.38161E-1	-2.56229E-2
+3.39150E+0	-1.09746E-1	-2.00963E-1	-3.03005E-2
+3.40620E+0	-1.23743E-1	-1.77160E-1	-3.44585E-2
+3.42100E+0	-1.37810E-1	-2.11187E-1	-3.79830E-2
+3.43570E+0	-1.51755E-1	-2.41399E-1	-4.10177E-2
+3.45050E+0	-1.65764E-1	-2.16375E-1	-4.38255E-2
+3.46520E+0	-1.79646E-1	-1.93868E-1	-4.64039E-2
+3.48000E+0	-1.93586E-1	-1.59460E-1	-4.87136E-2
+3.49470E+0	-2.07393E-1	-1.26958E-1	-5.08638E-2
+3.50950E+0	-2.21252E-1	-1.19329E-1	-5.27861E-2
+3.52420E+0	-2.34974E-1	-1.27950E-1	-5.45828E-2
+3.53890E+0	-2.48649E-1	-1.39394E-1	-5.62667E-2
+3.55370E+0	-2.62367E-1	-1.04833E-1	-5.78514E-2
+3.56840E+0	-2.75940E-1	-7.04245E-2	-5.92480E-2
+3.58320E+0	-2.89551E-1	-7.30948E-2	-6.04818E-2
+3.59790E+0	-3.03011E-1	-8.14871E-2	-6.17140E-2
+3.61270E+0	-3.16502E-1	-7.27133E-2	-6.28472E-2
+3.62740E+0	-3.29839E-1	-7.03482E-2	-6.39075E-2
+3.64220E+0	-3.43201E-1	-6.08115E-2	-6.48779E-2
+3.65690E+0	-3.56404E-1	-6.61520E-2	-6.58178E-2
+3.67170E+0	-3.69625E-1	-6.63046E-2	-6.66782E-2
+3.68640E+0	-3.82683E-1	-5.50131E-2	-6.74860E-2
+3.70110E+0	-3.95666E-1	-5.27243E-2	-6.82484E-2
+3.71590E+0	-4.08657E-1	-4.05936E-2	-6.89652E-2
+3.73060E+0	-4.21479E-1	-3.43375E-2	-6.96396E-2
+3.74540E+0	-4.34303E-1	-3.54056E-2	-7.02718E-2
+3.76010E+0	-4.46955E-1	-3.14383E-2	-7.08640E-2
+3.77490E+0	-4.59602E-1	-3.28879E-2	-7.14419E-2
+3.78960E+0	-4.72073E-1	-4.02121E-2	-7.19779E-2
+3.80440E+0	-4.84534E-1	-4.17380E-2	-7.24849E-2
+3.81910E+0	-4.96814E-1	-4.56290E-2	-7.29707E-2
+3.83390E+0	-5.09078E-1	-4.71548E-2	-7.34428E-2
+3.84860E+0	-5.21157E-1	-4.95963E-2	-7.38854E-2
+3.86330E+0	-5.33133E-1	-4.47897E-2	-7.43026E-2
+3.87810E+0	-5.45084E-1	-4.66971E-2	-7.47110E-2
+3.89280E+0	-5.56845E-1	-4.12039E-2	-7.50877E-2
+3.90760E+0	-5.68574E-1	-3.76181E-2	-7.54528E-2
+3.92230E+0	-5.80111E-1	-3.24301E-2	-7.57949E-2
+3.93710E+0	-5.91610E-1	-2.15964E-2	-7.61273E-2
+3.95180E+0	-6.02914E-1	-1.77054E-2	-7.64523E-2
+3.96660E+0	-6.14173E-1	-1.53403E-2	-7.67759E-2
+3.98130E+0	-6.25234E-1	-2.04520E-2	-7.70685E-2
+3.99610E+0	-6.36244E-1	-2.38852E-2	-7.73432E-2
+4.01080E+0	-6.47054E-1	-2.36563E-2	-7.76130E-2
+4.02550E+0	-6.57734E-1	-1.69424E-2	-7.78737E-2
+4.04030E+0	-6.68356E-1	-1.45773E-2	-7.81336E-2
+4.05500E+0	-6.78773E-1	-1.53403E-2	-7.83714E-2
+4.06980E+0	-6.89124E-1	-1.72476E-2	-7.86006E-2
+4.08450E+0	-6.99268E-1	-1.41959E-2	-7.88340E-2
+4.09930E+0	-7.09340E-1	-2.01468E-2	-7.90509E-2
+4.11400E+0	-7.19204E-1	-1.04575E-2	-7.92548E-2
+4.12880E+0	-7.28990E-1	-1.32040E-2	-7.94593E-2
+4.14350E+0	-7.38564E-1	-1.75528E-2	-7.96588E-2
+4.15830E+0	-7.48056E-1	-1.19833E-2	-7.98473E-2
+4.17300E+0	-7.57334E-1	-1.21359E-2	-8.00268E-2
+4.18780E+0	-7.66524E-1	-1.12967E-2	-8.02084E-2
+4.20250E+0	-7.75498E-1	-1.26700E-2	-8.03760E-2
+4.21720E+0	-7.84319E-1	-1.29752E-2	-8.05371E-2
+4.23200E+0	-7.93042E-1	-1.28989E-2	-8.06943E-2
+4.24670E+0	-8.01548E-1	-1.16019E-2	-8.08485E-2
+4.26150E+0	-8.09951E-1	-4.12506E-3	-8.09996E-2
+4.27620E+0	-8.18136E-1	-9.92340E-3	-8.11441E-2
+4.29100E+0	-8.26213E-1	-1.45773E-2	-8.12833E-2
+4.30570E+0	-8.34070E-1	-4.65912E-3	-8.14138E-2
+4.32050E+0	-8.41814E-1	-6.64276E-3	-8.15479E-2
+4.33520E+0	-8.49337E-1	-7.48200E-3	-8.16734E-2
+4.35000E+0	-8.56741E-1	-5.57465E-3	-8.18031E-2
+4.36470E+0	-8.63925E-1	-5.80353E-3	-8.19136E-2
+4.37940E+0	-8.70936E-1	-3.81989E-3	-8.20249E-2
+4.39420E+0	-8.77821E-1	-7.63459E-3	-8.21320E-2
+4.40890E+0	-8.84484E-1	-7.71088E-3	-8.22400E-2
+4.42370E+0	-8.91015E-1	-6.41388E-3	-8.23414E-2
+4.43840E+0	-8.97325E-1	-5.34577E-3	-8.24424E-2
+4.45320E+0	-9.03497E-1	-4.12506E-3	-8.25347E-2
+4.46790E+0	-9.09447E-1	-5.11689E-3	-8.26279E-2
+4.48270E+0	-9.15256E-1	-2.34073E-4	-8.27149E-2
+4.49740E+0	-9.20842E-1	-5.80353E-3	-8.28058E-2
+4.51220E+0	-9.26283E-1	-9.46564E-3	-8.28816E-2
+4.52690E+0	-9.31501E-1	-1.57779E-4	-8.29649E-2
+4.54160E+0	-9.36535E-1	+1.47397E-4	-8.30388E-2
+4.55640E+0	-9.41415E-1	-1.06863E-2	-8.31130E-2
+4.57110E+0	-9.46074E-1	-1.04575E-2	-8.31855E-2
+4.58590E+0	-9.50575E-1	-1.18308E-2	-8.32500E-2
+4.60060E+0	-9.54857E-1	-1.53107E-3	-8.33166E-2
+4.61540E+0	-9.58976E-1	-5.65094E-3	-8.33763E-2
+4.63010E+0	-9.62876E-1	-8.47382E-3	-8.34395E-2
+4.64490E+0	-9.66609E-1	-7.17682E-3	-8.34937E-2
+4.65960E+0	-9.70124E-1	+3.76278E-4	-8.35445E-2
+4.67440E+0	-9.73469E-1	-8.70270E-3	-8.35983E-2
+4.68910E+0	-9.76597E-1	-8.77900E-3	-8.36472E-2
+4.70380E+0	-9.79531E-1	-1.60269E-2	-8.36987E-2
+4.71860E+0	-9.82289E-1	-1.30219E-3	-8.37341E-2
+4.73330E+0	-9.84832E-1	-2.06513E-3	-8.37965E-2
+4.74810E+0	-9.87195E-1	-8.14853E-5	-8.38205E-2
+4.76280E+0	-9.89345E-1	-6.33759E-3	-8.38580E-2
+4.77760E+0	-9.91311E-1	-4.65912E-3	-8.38891E-2
+4.79230E+0	-9.93066E-1	-6.94794E-3	-8.39203E-2
+4.80710E+0	-9.94634E-1	-9.54193E-3	-8.39522E-2
+4.82180E+0	-9.95993E-1	+1.47397E-4	-8.39740E-2
+4.83660E+0	-9.97162E-1	-2.75177E-3	-8.40059E-2
+4.85130E+0	-9.98124E-1	-4.58283E-3	-8.40262E-2
+4.86600E+0	-9.98888E-1	+1.21551E-3	-8.40416E-2
+4.88080E+0	-9.99456E-1	+1.06292E-3	-8.40659E-2
+4.89550E+0	-9.99822E-1	-1.53107E-3	-8.40757E-2
+4.91030E+0	-9.99989E-1	+6.05160E-4	-8.40925E-2
+4.92500E+0	-9.99956E-1	-1.75995E-3	-8.41030E-2
+4.93980E+0	-9.99722E-1	+2.13104E-3	-8.41078E-2
+4.95450E+0	-9.99290E-1	+1.06292E-3	-8.41202E-2
+4.96930E+0	-9.98655E-1	+3.58062E-3	-8.41244E-2
+4.98400E+0	-9.97825E-1	+6.05160E-4	-8.41370E-2
+4.99880E+0	-9.96790E-1	-5.72724E-3	-8.41389E-2
+5.01350E+0	-9.95562E-1	+3.35174E-3	-8.41383E-2
+5.02820E+0	-9.94137E-1	-4.73542E-3	-8.41489E-2
+5.04300E+0	-9.92503E-1	-6.64276E-3	-8.41500E-2
+5.05770E+0	-9.90682E-1	-9.97013E-4	-8.41478E-2
+5.07250E+0	-9.88650E-1	+9.10336E-4	-8.41512E-2
+5.08720E+0	-9.86434E-1	-6.87165E-3	-8.41482E-2
+5.10200E+0	-9.84006E-1	-2.75177E-3	-8.41514E-2
+5.11670E+0	-9.81398E-1	+1.19730E-2	-8.41398E-2
+5.13150E+0	-9.78575E-1	-1.09915E-2	-8.41444E-2
+5.14620E+0	-9.75576E-1	-1.83157E-2	-8.41159E-2
+5.16100E+0	-9.72361E-1	-1.07331E-3	-8.41165E-2
+5.17570E+0	-9.68974E-1	+6.78497E-3	-8.41162E-2
+5.19050E+0	-9.65369E-1	-1.91254E-3	-8.41047E-2
+5.20520E+0	-9.61597E-1	-2.59919E-3	-8.40921E-2
+5.21990E+0	-9.57633E-1	+3.35174E-3	-8.40800E-2
+5.23470E+0	-9.53451E-1	+3.50433E-3	-8.40633E-2
+5.24940E+0	-9.49106E-1	-5.19135E-6	-8.40482E-2
+5.26420E+0	-9.44542E-1	+4.26727E-3	-8.40291E-2
+5.27890E+0	-9.39820E-1	+5.56427E-3	-8.40098E-2
+5.29370E+0	-9.34878E-1	+4.26727E-3	-8.39887E-2
+5.30840E+0	-9.29782E-1	+1.97845E-3	-8.39620E-2
+5.32320E+0	-9.24465E-1	-5.39249E-4	-8.39415E-2
+5.33790E+0	-9.19000E-1	+2.13104E-3	-8.39085E-2
+5.35270E+0	-9.13314E-1	+5.18280E-3	-8.38856E-2
+5.36740E+0	-9.07484E-1	-2.59919E-3	-8.38540E-2
+5.38210E+0	-9.01473E-1	+2.81768E-3	-8.38203E-2
+5.39690E+0	-8.95241E-1	+3.04657E-3	-8.37849E-2
+5.41160E+0	-8.88873E-1	+4.80133E-3	-8.37465E-2
+5.42640E+0	-8.82283E-1	-1.57779E-4	-8.37065E-2
+5.44110E+0	-8.75561E-1	-1.83625E-3	-8.36683E-2
+5.45590E+0	-8.68618E-1	+6.47979E-3	-8.36245E-2
+5.47060E+0	-8.61549E-1	+1.52069E-3	-8.35765E-2
+5.48540E+0	-8.54259E-1	+5.86944E-3	-8.35277E-2
+5.50010E+0	-8.46848E-1	+4.41986E-3	-8.34755E-2
+5.51490E+0	-8.39217E-1	+3.35174E-3	-8.34220E-2
+5.52960E+0	-8.31470E-1	+7.77679E-3	-8.33658E-2
+5.54430E+0	-8.23557E-1	+1.59698E-3	-8.33073E-2
+5.55910E+0	-8.15426E-1	+4.34356E-3	-8.32433E-2
+5.57380E+0	-8.07187E-1	+1.05997E-2	-8.31767E-2
+5.58860E+0	-7.98730E-1	+5.10650E-3	-8.31056E-2
+5.60330E+0	-7.90171E-1	+1.21551E-3	-8.30322E-2
+5.61810E+0	-7.81396E-1	+2.13104E-3	-8.29535E-2
+5.63280E+0	-7.72524E-1	+5.79315E-3	-8.28757E-2
+5.64760E+0	-7.63436E-1	+8.61602E-3	-8.27939E-2
+5.66230E+0	-7.54258E-1	+8.99749E-3	-8.27065E-2
+5.67710E+0	-7.44866E-1	+6.40350E-3	-8.26144E-2
+5.69180E+0	-7.35389E-1	+6.78497E-3	-8.25209E-2
+5.70650E+0	-7.25766E-1	+7.16644E-3	-8.24221E-2
+5.72130E+0	-7.15932E-1	+6.40350E-3	-8.23218E-2
+5.73600E+0	-7.06021E-1	+6.70868E-3	-8.22104E-2
+5.75080E+0	-6.95902E-1	+1.43381E-2	-8.20964E-2
+5.76550E+0	-6.85712E-1	+9.30267E-3	-8.19803E-2
+5.78030E+0	-6.75315E-1	+9.30267E-3	-8.18568E-2
+5.79500E+0	-6.64854E-1	+8.53973E-3	-8.17254E-2
+5.80980E+0	-6.54189E-1	+9.07379E-3	-8.15901E-2
+5.82450E+0	-6.43465E-1	+7.92938E-3	-8.14483E-2
+5.83930E+0	-6.32539E-1	+7.31903E-3	-8.12926E-2
+5.85400E+0	-6.21560E-1	+1.39566E-2	-8.11341E-2
+5.86870E+0	-6.10459E-1	+1.55588E-2	-8.09784E-2
+5.88350E+0	-5.99159E-1	+1.05234E-2	-8.08096E-2
+5.89820E+0	-5.87816E-1	+1.22018E-2	-8.06253E-2
+5.91300E+0	-5.76278E-1	+1.28122E-2	-8.04414E-2
+5.92770E+0	-5.64704E-1	+1.18967E-2	-8.02500E-2
+5.94250E+0	-5.52937E-1	+1.24307E-2	-8.00429E-2
+5.95720E+0	-5.41139E-1	+1.28885E-2	-7.98206E-2
+5.97200E+0	-5.29153E-1	+9.45526E-3	-7.95961E-2
+5.98670E+0	-5.17142E-1	+1.34225E-2	-7.93597E-2
+6.00150E+0	-5.04946E-1	+1.49484E-2	-7.91090E-2
+6.01620E+0	-4.92731E-1	+1.54062E-2	-7.88447E-2
+6.03100E+0	-4.80335E-1	+1.14389E-2	-7.85697E-2
+6.04570E+0	-4.67926E-1	+1.28885E-2	-7.82857E-2
+6.06040E+0	-4.55425E-1	+1.46432E-2	-7.79836E-2
+6.07520E+0	-4.42747E-1	+1.05234E-2	-7.76655E-2
+6.08990E+0	-4.30067E-1	+9.45526E-3	-7.73289E-2
+6.10470E+0	-4.17214E-1	+1.25070E-2	-7.69750E-2
+6.11940E+0	-4.04365E-1	+1.02945E-2	-7.66053E-2
+6.13420E+0	-3.91347E-1	+2.28830E-2	-7.62044E-2
+6.14890E+0	-3.78339E-1	+3.58530E-2	-7.57907E-2
+6.16370E+0	-3.65167E-1	+4.62289E-2	-7.53281E-2
+6.17840E+0	-3.52011E-1	+4.97385E-2	-7.48448E-2
+6.19320E+0	-3.38695E-1	+4.42453E-2	-7.43117E-2
+6.20790E+0	-3.25401E-1	+3.36404E-2	-7.37773E-2
+6.22260E+0	-3.12043E-1	+3.08939E-2	-7.32015E-2
+6.23740E+0	-2.98531E-1	+4.34061E-2	-7.25770E-2
+6.25210E+0	-2.85051E-1	+5.21799E-2	-7.19170E-2
+6.26690E+0	-2.71422E-1	+5.53842E-2	-7.11808E-2
+6.28160E+0	-2.57831E-1	+5.69101E-2	-7.04002E-2
+6.29640E+0	-2.44096E-1	+5.73679E-2	-6.95495E-2
+6.31110E+0	-2.30405E-1	+6.91171E-2	-6.86202E-2
+6.32590E+0	-2.16575E-1	+7.51443E-2	-6.76089E-2
+6.34060E+0	-2.02795E-1	+7.20163E-2	-6.65207E-2
+6.35540E+0	-1.88880E-1	+7.07193E-2	-6.53464E-2
+6.37010E+0	-1.75022E-1	+9.10898E-2	-6.40646E-2
+6.38480E+0	-1.61129E-1	+1.06883E-1	-6.26628E-2
+6.39960E+0	-1.47110E-1	+1.35111E-1	-6.10536E-2
+6.41430E+0	-1.33156E-1	+1.49226E-1	-5.93254E-2
+6.42910E+0	-1.19080E-1	+1.65858E-1	-5.73245E-2
+6.44380E+0	-1.05075E-1	+1.65476E-1	-5.51723E-2
+6.45860E+0	-9.09542E-2	+1.62196E-1	-5.27780E-2
+6.47330E+0	-7.69106E-2	+1.89127E-1	-5.01559E-2
+6.48810E+0	-6.27561E-2	+2.03547E-1	-4.71547E-2
+6.50280E+0	-4.86846E-2	+2.51765E-1	-4.36749E-2
+6.51760E+0	-3.45077E-2	+3.05934E-1	-3.96934E-2
+6.53230E+0	-2.04197E-2	+3.59950E-1	-3.48263E-2
+6.54700E+0	-6.32763E-3	+4.58521E-1	-2.88664E-2
+6.56180E+0	+7.86157E-3	+5.85246E-1	-2.10827E-2
+6.57650E+0	+2.19533E-2	+6.66651E-1	-1.15979E-2
+6.59130E+0	+3.61366E-2	+6.60090E-1	-1.77332E-3
+6.60600E+0	+5.02167E-2	+6.53758E-1	+7.89394E-3
+6.62080E+0	+6.43826E-2	+6.43763E-1	+1.75002E-2
+6.63550E+0	+7.84400E-2	+6.31175E-1	+2.68741E-2
+6.65030E+0	+9.25772E-2	+6.14314E-1	+3.60954E-2
+6.66500E+0	+1.06600E-1	+1.29084E-1	+4.32994E-2
+6.67980E+0	+1.20698E-1	+3.30882E-1	+4.74944E-2
+6.69450E+0	+1.34676E-1	+3.27906E-1	+5.09089E-2
+6.70920E+0	+1.48627E-1	+2.70533E-1	+5.42789E-2
+6.72400E+0	+1.62643E-1	+2.18501E-1	+5.73980E-2
+6.73870E+0	+1.76532E-1	+1.82566E-1	+6.02937E-2
+6.75350E+0	+1.90481E-1	+1.59907E-1	+6.28902E-2
+6.76820E+0	+2.04297E-1	+1.36408E-1	+6.51735E-2
+6.78300E+0	+2.18166E-1	+1.28626E-1	+6.72711E-2
+6.79770E+0	+2.31898E-1	+1.37324E-1	+6.91858E-2
+6.81250E+0	+2.45676E-1	+1.43199E-1	+7.10234E-2
+6.82720E+0	+2.59313E-1	+1.22370E-1	+7.26667E-2
+6.84200E+0	+2.72990E-1	+8.23923E-2	+7.41735E-2
+6.85670E+0	+2.86521E-1	+6.99564E-2	+7.54972E-2
+6.87140E+0	+2.99995E-1	+8.19345E-2	+7.67496E-2
+6.88620E+0	+3.13500E-1	+8.47574E-2	+7.79465E-2
+6.90090E+0	+3.26851E-1	+7.47629E-2	+7.90350E-2
+6.91570E+0	+3.40228E-1	+6.87357E-2	+8.00811E-2
+6.93040E+0	+3.53446E-1	+6.04196E-2	+8.10250E-2
+6.94520E+0	+3.66684E-1	+5.95041E-2	+8.19182E-2
+6.95990E+0	+3.79759E-1	+6.01144E-2	+8.27399E-2
+6.97470E+0	+3.92846E-1	+5.79019E-2	+8.35433E-2
+6.98940E+0	+4.05767E-1	+4.97385E-2	+8.42511E-2
+7.00420E+0	+4.18695E-1	+4.27194E-2	+8.49453E-2
+7.01890E+0	+4.31451E-1	+3.64633E-2	+8.55732E-2
+7.03370E+0	+4.44208E-1	+2.82236E-2	+8.61809E-2
+7.04840E+0	+4.56790E-1	+3.12753E-2	+8.67354E-2
+7.06310E+0	+4.69282E-1	+2.52481E-2	+8.72645E-2
+7.07790E+0	+4.81764E-1	+2.51718E-2	+8.77728E-2
+7.09260E+0	+4.94066E-1	+1.84579E-2	+8.82545E-2
+7.10740E+0	+5.06352E-1	+2.26541E-2	+8.87060E-2
+7.12210E+0	+5.18454E-1	+2.50955E-2	+8.91347E-2
+7.13690E+0	+5.30535E-1	+2.96732E-2	+8.95492E-2
+7.15160E+0	+5.42429E-1	+2.86813E-2	+8.99369E-2
+7.16640E+0	+5.54294E-1	+2.45615E-2	+9.03103E-2
+7.18110E+0	+5.65969E-1	+1.81528E-2	+9.06701E-2
+7.19590E+0	+5.77610E-1	+2.04416E-2	+9.10165E-2
+7.21060E+0	+5.89057E-1	+1.39566E-2	+9.13536E-2
+7.22530E+0	+6.00386E-1	+1.31174E-2	+9.16561E-2
+7.24010E+0	+6.11673E-1	+1.99838E-2	+9.19570E-2
+7.25480E+0	+6.22761E-1	+2.45615E-2	+9.22276E-2
+7.26960E+0	+6.33800E-1	+2.16623E-2	+9.24951E-2
+7.28430E+0	+6.44638E-1	+1.75424E-2	+9.27445E-2
+7.29910E+0	+6.55420E-1	+1.65506E-2	+9.30006E-2
+7.31380E+0	+6.65999E-1	+1.57114E-2	+9.32369E-2
+7.32860E+0	+6.76516E-1	+1.80002E-2	+9.34623E-2
+7.34330E+0	+6.86828E-1	+1.00656E-2	+9.36810E-2
+7.35810E+0	+6.97071E-1	+1.32700E-2	+9.38909E-2
+7.37280E+0	+7.07107E-1	+1.32700E-2	+9.40820E-2
+7.38750E+0	+7.17002E-1	+1.36514E-2	+9.42749E-2
+7.40230E+0	+7.26820E-1	+1.00656E-2	+9.44640E-2
+7.41700E+0	+7.36428E-1	+1.44907E-2	+9.46370E-2
+7.43180E+0	+7.45952E-1	+5.79315E-3	+9.48154E-2
+7.44650E+0	+7.55264E-1	+1.34225E-2	+9.49700E-2
+7.46130E+0	+7.64488E-1	+9.45526E-3	+9.51318E-2
+7.47600E+0	+7.73497E-1	+1.03708E-2	+9.52801E-2
+7.49080E+0	+7.82412E-1	+4.41986E-3	+9.54362E-2
+7.50550E+0	+7.91111E-1	+4.11468E-3	+9.55641E-2
+7.52030E+0	+7.99710E-1	+8.76861E-3	+9.57015E-2
+7.53500E+0	+8.08092E-1	+1.14389E-2	+9.58257E-2
+7.54970E+0	+8.16313E-1	+1.26596E-2	+9.59418E-2
+7.56450E+0	+8.24427E-1	+3.04657E-3	+9.60640E-2
+7.57920E+0	+8.32321E-1	+8.53973E-3	+9.61823E-2
+7.59400E+0	+8.40102E-1	+8.69232E-3	+9.62822E-2
+7.60870E+0	+8.47663E-1	+9.98932E-3	+9.63908E-2
+7.62350E+0	+8.55105E-1	+9.76043E-3	+9.64905E-2
+7.63820E+0	+8.62327E-1	+5.03021E-3	+9.65872E-2
+7.65300E+0	+8.69425E-1	+5.79315E-3	+9.66818E-2
+7.66770E+0	+8.76301E-1	+1.13922E-3	+9.67665E-2
+7.68250E+0	+8.83049E-1	+6.93756E-3	+9.68510E-2
+7.69720E+0	+8.89574E-1	+7.92938E-3	+9.69327E-2
+7.71190E+0	+8.95924E-1	+5.03021E-3	+9.70107E-2
+7.72670E+0	+9.02136E-1	+2.35992E-3	+9.70852E-2
+7.74140E+0	+9.08127E-1	+2.13104E-3	+9.71575E-2
+7.75620E+0	+9.13976E-1	+5.56427E-3	+9.72250E-2
+7.77090E+0	+9.19604E-1	+1.01419E-2	+9.72889E-2
+7.78570E+0	+9.25086E-1	-1.22589E-3	+9.73448E-2
+7.80040E+0	+9.30346E-1	+4.34356E-3	+9.74119E-2
+7.81520E+0	+9.35455E-1	-1.57779E-4	+9.74637E-2
+7.82990E+0	+9.40343E-1	+1.47397E-4	+9.75144E-2
+7.84470E+0	+9.45076E-1	+6.25091E-3	+9.75603E-2
+7.85940E+0	+9.49588E-1	+4.87762E-3	+9.76055E-2
+7.87420E+0	+9.53941E-1	+2.35992E-3	+9.76569E-2
+7.88890E+0	+9.58074E-1	+1.47397E-4	+9.76947E-2
+7.90360E+0	+9.62017E-1	+6.70868E-3	+9.77324E-2
+7.91840E+0	+9.65793E-1	+4.87762E-3	+9.77696E-2
+7.93310E+0	+9.69352E-1	-2.29401E-3	+9.78019E-2
+7.94790E+0	+9.72740E-1	+7.77679E-3	+9.78367E-2
+7.96260E+0	+9.75912E-1	+4.72503E-3	+9.78699E-2
+7.97740E+0	+9.78909E-1	+4.57245E-3	+9.78990E-2
+7.99210E+0	+9.81691E-1	+1.35751E-2	+9.79134E-2
+8.00690E+0	+9.84295E-1	-1.26700E-2	+9.79395E-2
+8.02160E+0	+9.86685E-1	+1.29181E-3	+9.79477E-2
+8.03640E+0	+9.88893E-1	-3.13324E-3	+9.79643E-2
+8.05110E+0	+9.90890E-1	+5.03021E-3	+9.79844E-2
+8.06580E+0	+9.92689E-1	-3.05695E-3	+9.79864E-2
+8.08060E+0	+9.94302E-1	+3.19915E-3	+9.79973E-2
+8.09530E+0	+9.95706E-1	+4.95392E-3	+9.80040E-2
+8.11010E+0	+9.96919E-1	-1.57779E-4	+9.80112E-2
+8.12480E+0	+9.97925E-1	+1.67328E-3	+9.80057E-2
+8.13960E+0	+9.98738E-1	+9.86630E-4	+9.80039E-2
+8.15430E+0	+9.99347E-1	-5.11689E-3	+9.80046E-2
+8.16910E+0	+9.99759E-1	-2.14142E-3	+9.79977E-2
+8.18380E+0	+9.99969E-1	-2.44660E-3	+9.79931E-2
+8.19860E+0	+9.99980E-1	-9.20719E-4	+9.79824E-2
+8.21330E+0	+9.99791E-1	+2.99984E-4	+9.79626E-2
+8.22800E+0	+9.99404E-1	-9.20719E-4	+9.79546E-2
+8.24280E+0	+9.98814E-1	-3.81989E-3	+9.79395E-2
+8.25750E+0	+9.98029E-1	-7.25312E-3	+9.79283E-2
+8.27230E+0	+9.97038E-1	+2.43621E-3	+9.79155E-2
+8.28700E+0	+9.95855E-1	+2.81768E-3	+9.78902E-2
+8.30180E+0	+9.94464E-1	-5.65094E-3	+9.78797E-2
+8.31650E+0	+9.92885E-1	-6.15543E-4	+9.78617E-2
+8.33130E+0	+9.91095E-1	+1.36810E-3	+9.78372E-2
+8.34600E+0	+9.89120E-1	-3.28583E-3	+9.78188E-2
+8.36080E+0	+9.86933E-1	-4.43024E-3	+9.77966E-2
+8.37550E+0	+9.84564E-1	-4.73542E-3	+9.77729E-2
+8.39020E+0	+9.82000E-1	-2.14142E-3	+9.77400E-2
+8.40500E+0	+9.79221E-1	-7.86347E-3	+9.77305E-2
+8.41970E+0	+9.76266E-1	+2.08231E-2	+9.76972E-2
+8.43450E+0	+9.73095E-1	+1.26596E-2	+9.76608E-2
+8.44920E+0	+9.69751E-1	-9.46564E-3	+9.76372E-2
+8.46400E+0	+9.66190E-1	-4.62955E-4	+9.76068E-2
+8.47870E+0	+9.62460E-1	+2.28363E-3	+9.75691E-2
+8.49350E+0	+9.58512E-1	-2.37030E-3	+9.75379E-2
+8.50820E+0	+9.54400E-1	-3.20954E-3	+9.75038E-2
+8.52300E+0	+9.50068E-1	-2.67548E-3	+9.74642E-2
+8.53770E+0	+9.45576E-1	+7.57748E-4	+9.74258E-2
+8.55240E+0	+9.40896E-1	-2.34073E-4	+9.73838E-2
+8.56720E+0	+9.35996E-1	-2.37030E-3	+9.73424E-2
+8.58190E+0	+9.30942E-1	-6.41388E-3	+9.72962E-2
+8.59670E+0	+9.25667E-1	+9.10336E-4	+9.72495E-2
+8.61140E+0	+9.20243E-1	-8.24494E-3	+9.72021E-2
+8.62620E+0	+9.14598E-1	+1.29181E-3	+9.71516E-2
+8.64090E+0	+9.08808E-1	-3.05695E-3	+9.70977E-2
+8.65570E+0	+9.02797E-1	-6.10871E-3	+9.70487E-2
+8.67040E+0	+8.96646E-1	-5.26947E-3	+9.69893E-2
+8.68520E+0	+8.90274E-1	-5.49836E-3	+9.69320E-2
+8.69990E+0	+8.83767E-1	-2.29401E-3	+9.68730E-2
+8.71460E+0	+8.77085E-1	-2.59919E-3	+9.68092E-2
+8.72940E+0	+8.70181E-1	-3.97248E-3	+9.67454E-2
+8.74410E+0	+8.63151E-1	-5.19318E-3	+9.66739E-2
+8.75890E+0	+8.55900E-1	-4.58283E-3	+9.66090E-2
+8.77360E+0	+8.48526E-1	-6.03241E-3	+9.65336E-2
+8.78840E+0	+8.40933E-1	-1.00760E-2	+9.64579E-2
+8.80310E+0	+8.33223E-1	-3.36212E-3	+9.63807E-2
+8.81790E+0	+8.25294E-1	-4.81171E-3	+9.63007E-2
+8.83260E+0	+8.17253E-1	-4.43024E-3	+9.62180E-2
+8.84740E+0	+8.08994E-1	-5.65094E-3	+9.61254E-2
+8.86210E+0	+8.00630E-1	-4.65912E-3	+9.60374E-2
+8.87690E+0	+7.92048E-1	-8.55011E-3	+9.59470E-2
+8.89160E+0	+7.83366E-1	-3.36212E-3	+9.58520E-2
+8.90630E+0	+7.74529E-1	-2.37030E-3	+9.57496E-2
+8.92110E+0	+7.65476E-1	-2.82807E-3	+9.56432E-2
+8.93580E+0	+7.56331E-1	-6.91837E-4	+9.55350E-2
+8.95060E+0	+7.46973E-1	-2.14142E-3	+9.54206E-2
+8.96530E+0	+7.37529E-1	-1.22589E-3	+9.53058E-2
+8.98010E+0	+7.27873E-1	-4.27765E-3	+9.51874E-2
+8.99480E+0	+7.18137E-1	-6.49018E-3	+9.50580E-2
+9.00960E+0	+7.08191E-1	-1.11441E-2	+9.49313E-2
+9.02430E+0	+6.98170E-1	-8.85529E-3	+9.47898E-2
+9.03910E+0	+6.87942E-1	-8.93158E-3	+9.46537E-2
+9.05380E+0	+6.77645E-1	-1.45773E-2	+9.45113E-2
+9.06850E+0	+6.67214E-1	-5.80353E-3	+9.43575E-2
+9.08330E+0	+6.56578E-1	-9.23676E-3	+9.41948E-2
+9.09800E+0	+6.45883E-1	-1.24411E-2	+9.40354E-2
+9.11280E+0	+6.34986E-1	-1.45010E-2	+9.38703E-2
+9.12750E+0	+6.24036E-1	-8.70270E-3	+9.36861E-2
+9.14230E+0	+6.12886E-1	-1.26700E-2	+9.35028E-2
+9.15700E+0	+6.01689E-1	-1.09915E-2	+9.33106E-2
+9.17180E+0	+5.90295E-1	-1.43485E-2	+9.31093E-2
+9.18650E+0	+5.78861E-1	-1.95364E-2	+9.29026E-2
+9.20130E+0	+5.67233E-1	-1.45010E-2	+9.26876E-2
+9.21600E+0	+5.55570E-1	-2.05283E-2	+9.24607E-2
+9.23070E+0	+5.43797E-1	-1.58743E-2	+9.22288E-2
+9.24550E+0	+5.31835E-1	-1.32803E-2	+9.19805E-2
+9.26020E+0	+5.19847E-1	-1.28226E-2	+9.17240E-2
+9.27500E+0	+5.07674E-1	-1.22122E-2	+9.14514E-2
+9.28970E+0	+4.95482E-1	-1.51114E-2	+9.11713E-2
+9.30450E+0	+4.83107E-1	-1.64847E-2	+9.08784E-2
+9.31920E+0	+4.70720E-1	-1.48062E-2	+9.05701E-2
+9.33400E+0	+4.58154E-1	-1.84683E-2	+9.02467E-2
+9.34870E+0	+4.45582E-1	-2.49533E-2	+8.99107E-2
+9.36350E+0	+4.32835E-1	-3.08279E-2	+8.95489E-2
+9.37820E+0	+4.20087E-1	-3.29642E-2	+8.91699E-2
+9.39290E+0	+4.07256E-1	-4.44083E-2	+8.87731E-2
+9.40770E+0	+3.94256E-1	-4.78415E-2	+8.83468E-2
+9.42240E+0	+3.81266E-1	-5.20377E-2	+8.78908E-2
+9.43720E+0	+3.68110E-1	-4.20432E-2	+8.74114E-2
+9.45190E+0	+3.54970E-1	-3.29642E-2	+8.69130E-2
+9.46670E+0	+3.41670E-1	-2.79288E-2	+8.63983E-2
+9.48140E+0	+3.28391E-1	-3.28879E-2	+8.58343E-2
+9.49620E+0	+3.14956E-1	-4.97488E-2	+8.52324E-2
+9.51090E+0	+3.01549E-1	-5.12747E-2	+8.45811E-2
+9.52570E+0	+2.87990E-1	-5.05118E-2	+8.38828E-2
+9.54040E+0	+2.74466E-1	-5.07407E-2	+8.31438E-2
+9.55510E+0	+2.60887E-1	-4.77652E-2	+8.23499E-2
+9.56990E+0	+2.47163E-1	-6.32529E-2	+8.14940E-2
+9.58460E+0	+2.33483E-1	-6.79068E-2	+8.05512E-2
+9.59940E+0	+2.19662E-1	-7.27133E-2	+7.95359E-2
+9.61410E+0	+2.05892E-1	-8.02664E-2	+7.84342E-2
+9.62890E+0	+1.91986E-1	-9.73563E-2	+7.72451E-2
+9.64360E+0	+1.78136E-1	-1.03231E-1	+7.58927E-2
+9.65840E+0	+1.64157E-1	-8.97269E-2	+7.44245E-2
+9.67310E+0	+1.50238E-1	-9.17868E-2	+7.28954E-2
+9.68790E+0	+1.36196E-1	-9.99503E-2	+7.11349E-2
+9.70260E+0	+1.22220E-1	-1.13378E-1	+6.92611E-2
+9.71740E+0	+1.08126E-1	-1.36571E-1	+6.71487E-2
+9.73210E+0	+9.41045E-2	-1.69378E-1	+6.48276E-2
+9.74680E+0	+8.00647E-2	-1.87459E-1	+6.21318E-2
+9.76160E+0	+6.59134E-2	-2.19427E-1	+5.90883E-2
+9.77630E+0	+5.18445E-2	-2.47655E-1	+5.56619E-2
+9.79110E+0	+3.76695E-2	-3.00451E-1	+5.16092E-2
+9.80580E+0	+2.35828E-2	-3.40505E-1	+4.69855E-2
+9.82060E+0	+9.39549E-3	-4.44265E-1	+4.09863E-2
+9.83530E+0	-4.69780E-3	-6.04101E-1	+3.35646E-2
+9.85010E+0	-1.88860E-2	-7.05038E-1	+2.33827E-2
+9.86480E+0	-3.29746E-2	-6.99773E-1	+1.30545E-2
+9.87960E+0	-4.71524E-2	-6.90999E-1	+2.75822E-3
+9.89430E+0	-6.12250E-2	-6.78945E-1	-7.31621E-3
+9.90900E+0	-7.52855E-2	-6.63305E-1	-1.71875E-2
+9.92380E+0	-8.94265E-2	-1.37639E-1	-2.33302E-2
+9.93850E+0	-1.03454E-1	-2.90838E-1	-2.85222E-2
+9.95330E+0	-1.17556E-1	-3.51568E-1	-3.23112E-2
+9.96800E+0	-1.31540E-1	-2.83208E-1	-3.58047E-2
+9.98280E+0	-1.45592E-1	-1.95775E-1	-3.90530E-2
+9.99750E+0	-1.59521E-1	-1.45727E-1	-4.21051E-2
+1.00123E+1	-1.73512E-1	-1.42522E-1	-4.47799E-2
+1.00270E+1	-1.87374E-1	-1.41912E-1	-4.72162E-2
+1.00418E+1	-2.01292E-1	-1.54882E-1	-4.94503E-2
+1.00565E+1	-2.15077E-1	-1.41149E-1	-5.15327E-2
+1.00712E+1	-2.28819E-1	-1.21236E-1	-5.34408E-2
+1.00860E+1	-2.42608E-1	-9.43045E-2	-5.51336E-2
+1.01007E+1	-2.56256E-1	-8.59885E-2	-5.66939E-2
+1.01155E+1	-2.69945E-1	-1.04375E-1	-5.81406E-2
+1.01302E+1	-2.83488E-1	-1.06359E-1	-5.95374E-2
+1.01450E+1	-2.97066E-1	-8.82010E-2	-6.07943E-2
+1.01597E+1	-3.10494E-1	-7.60703E-2	-6.19710E-2
+1.01745E+1	-3.23950E-1	-5.98196E-2	-6.30684E-2
+1.01892E+1	-3.37251E-1	-5.96671E-2	-6.40475E-2
+1.02040E+1	-3.50575E-1	-5.66916E-2	-6.50009E-2
+1.02187E+1	-3.63738E-1	-6.39395E-2	-6.58854E-2
+1.02334E+1	-3.76830E-1	-5.92856E-2	-6.67137E-2
+1.02482E+1	-3.89935E-1	-4.88333E-2	-6.74923E-2
+1.02629E+1	-4.02873E-1	-4.94437E-2	-6.82342E-2
+1.02777E+1	-4.15819E-1	-3.99832E-2	-6.89203E-2
+1.02924E+1	-4.28595E-1	-3.86099E-2	-6.95793E-2
+1.03072E+1	-4.41371E-1	-4.15091E-2	-7.01902E-2
+1.03219E+1	-4.53973E-1	-4.15854E-2	-7.07777E-2
+1.03367E+1	-4.66570E-1	-4.65445E-2	-7.13449E-2
+1.03514E+1	-4.78989E-1	-4.64682E-2	-7.18677E-2
+1.03662E+1	-4.91396E-1	-5.57761E-2	-7.23643E-2
+1.03809E+1	-5.03621E-1	-5.27243E-2	-7.28442E-2
+1.03956E+1	-5.15746E-1	-5.03592E-2	-7.33003E-2
+1.04104E+1	-5.27851E-1	-4.69260E-2	-7.37327E-2
+1.04251E+1	-5.39768E-1	-4.50186E-2	-7.41390E-2
+1.04399E+1	-5.51658E-1	-3.93729E-2	-7.45312E-2
+1.04546E+1	-5.63358E-1	-3.79996E-2	-7.48921E-2
+1.04694E+1	-5.75024E-1	-3.08279E-2	-7.52416E-2
+1.04841E+1	-5.86497E-1	-2.73184E-2	-7.55666E-2
+1.04989E+1	-5.97930E-1	-2.44193E-2	-7.59001E-2
+1.05136E+1	-6.09167E-1	-1.52640E-2	-7.62133E-2
+1.05284E+1	-6.20358E-1	-1.23648E-2	-7.65228E-2
+1.05431E+1	-6.31350E-1	-1.46536E-2	-7.68080E-2
+1.05578E+1	-6.42216E-1	-2.34274E-2	-7.70908E-2
+1.05726E+1	-6.53028E-1	-1.93839E-2	-7.73496E-2
+1.05873E+1	-6.63636E-1	-1.41196E-2	-7.76031E-2
+1.06021E+1	-6.74183E-1	-1.48825E-2	-7.78608E-2
+1.06168E+1	-6.84525E-1	-1.91550E-2	-7.80841E-2
+1.06316E+1	-6.94799E-1	-1.51114E-2	-7.83152E-2
+1.06463E+1	-7.04866E-1	-1.51877E-2	-7.85391E-2
+1.06611E+1	-7.14860E-1	-1.67899E-2	-7.87572E-2
+1.06758E+1	-7.24644E-1	-1.19070E-2	-7.89565E-2
+1.06906E+1	-7.34349E-1	-1.48062E-2	-7.91595E-2
+1.07053E+1	-7.43842E-1	-1.25174E-2	-7.93421E-2
+1.07201E+1	-7.53250E-1	-1.28989E-2	-7.95326E-2
+1.07348E+1	-7.62444E-1	-1.72476E-2	-7.97073E-2
+1.07495E+1	-7.71488E-1	-1.24411E-2	-7.98825E-2
+1.07643E+1	-7.80438E-1	-1.35092E-2	-8.00391E-2
+1.07790E+1	-7.89172E-1	-1.10678E-2	-8.02044E-2
+1.07938E+1	-7.97806E-1	-6.26129E-3	-8.03617E-2
+1.08085E+1	-8.06224E-1	-7.32941E-3	-8.05132E-2
+1.08233E+1	-8.14537E-1	-9.61823E-3	-8.06661E-2
+1.08380E+1	-8.22632E-1	-1.27463E-2	-8.07981E-2
+1.08528E+1	-8.30616E-1	-4.88800E-3	-8.09341E-2
+1.08675E+1	-8.38382E-1	-9.54193E-3	-8.10723E-2
+1.08823E+1	-8.46031E-1	-8.24494E-3	-8.11973E-2
+1.08970E+1	-8.53461E-1	-1.09152E-2	-8.13147E-2
+1.09117E+1	-8.60721E-1	-1.07626E-2	-8.14373E-2
+1.09265E+1	-8.67857E-1	-8.39753E-3	-8.15500E-2
+1.09412E+1	-8.74773E-1	-9.08417E-3	-8.16626E-2
+1.09560E+1	-8.81559E-1	-1.98883E-3	-8.17692E-2
+1.09707E+1	-8.88125E-1	-7.86347E-3	-8.18740E-2
+1.09855E+1	-8.94557E-1	-6.71906E-3	-8.19773E-2
+1.10002E+1	-9.00767E-1	-5.42206E-3	-8.20706E-2
+1.10150E+1	-9.06838E-1	-5.49836E-3	-8.21663E-2
+1.10297E+1	-9.12688E-1	-7.63459E-3	-8.22548E-2
+1.10445E+1	-9.18395E-1	-8.70270E-3	-8.23399E-2
+1.10592E+1	-9.23880E-1	-7.25312E-3	-8.24229E-2
+1.10739E+1	-9.29181E-1	-7.32941E-3	-8.25025E-2
+1.10887E+1	-9.34332E-1	-3.36212E-3	-8.25824E-2
+1.11034E+1	-9.39262E-1	-1.98883E-3	-8.26529E-2
+1.11182E+1	-9.44037E-1	-2.59919E-3	-8.27221E-2
+1.11329E+1	-9.48592E-1	-2.44660E-3	-8.27923E-2
+1.11477E+1	-9.52987E-1	-7.02423E-3	-8.28568E-2
+1.11624E+1	-9.57163E-1	+6.81454E-4	-8.29232E-2
+1.11772E+1	-9.61175E-1	-6.87165E-3	-8.29824E-2
+1.11919E+1	-9.64968E-1	-5.49836E-3	-8.30363E-2
+1.12067E+1	-9.68594E-1	+1.47397E-4	-8.30924E-2
+1.12214E+1	-9.72002E-1	-8.47382E-3	-8.31470E-2
+1.12361E+1	-9.75217E-1	-1.98883E-3	-8.31971E-2
+1.12509E+1	-9.78258E-1	+2.23690E-4	-8.32505E-2
+1.12656E+1	-9.81083E-1	-1.41959E-2	-8.32968E-2
+1.12804E+1	-9.83731E-1	-1.07331E-3	-8.33281E-2
+1.12951E+1	-9.86165E-1	-5.49836E-3	-8.33777E-2
+1.13099E+1	-9.88418E-1	-6.33759E-3	-8.34054E-2
+1.13246E+1	-9.90459E-1	+1.06292E-3	-8.34431E-2
+1.13394E+1	-9.92314E-1	-2.14142E-3	-8.34784E-2
+1.13541E+1	-9.93960E-1	-5.04059E-3	-8.35102E-2
+1.13689E+1	-9.95417E-1	-1.12967E-2	-8.35403E-2
+1.13836E+1	-9.96666E-1	-9.20719E-4	-8.35601E-2
+1.13983E+1	-9.97717E-1	+1.06292E-3	-8.35925E-2
+1.14131E+1	-9.98574E-1	-5.19318E-3	-8.36071E-2
+1.14278E+1	-9.99228E-1	-4.62955E-4	-8.36237E-2
+1.14426E+1	-9.99685E-1	+1.67328E-3	-8.36386E-2
+1.14573E+1	-9.99939E-1	+1.67328E-3	-8.36538E-2
+1.14721E+1	-9.99995E-1	+9.10336E-4	-8.36673E-2
+1.14868E+1	-9.99851E-1	-2.98066E-3	-8.36764E-2
+1.15016E+1	-9.99506E-1	+3.76278E-4	-8.36812E-2
+1.15163E+1	-9.98963E-1	-3.51471E-3	-8.36869E-2
+1.15311E+1	-9.98217E-1	+4.26727E-3	-8.36960E-2
+1.15458E+1	-9.97276E-1	-1.37848E-3	-8.37112E-2
+1.15606E+1	-9.96129E-1	-4.20136E-3	-8.37149E-2
+1.15753E+1	-9.94792E-1	+4.03839E-3	-8.37137E-2
+1.15900E+1	-9.93256E-1	+1.44439E-3	-8.37256E-2
+1.16048E+1	-9.91511E-1	-3.20954E-3	-8.37243E-2
+1.16195E+1	-9.89581E-1	-7.32941E-3	-8.37179E-2
+1.16343E+1	-9.87438E-1	+1.90216E-3	-8.37169E-2
+1.16490E+1	-9.85113E-1	+3.04657E-3	-8.37167E-2
+1.16638E+1	-9.82575E-1	-9.23676E-3	-8.37174E-2
+1.16785E+1	-9.79858E-1	+1.43381E-2	-8.37112E-2
+1.16933E+1	-9.76926E-1	-7.17682E-3	-8.37200E-2
+1.17080E+1	-9.73819E-1	-1.95364E-2	-8.36998E-2
+1.17228E+1	-9.70495E-1	+7.39532E-3	-8.36892E-2
+1.17375E+1	-9.67001E-1	-4.62955E-4	-8.36836E-2
+1.17522E+1	-9.63314E-1	-3.10367E-4	-8.36709E-2
+1.17670E+1	-9.59409E-1	-2.44660E-3	-8.36588E-2
+1.17817E+1	-9.55340E-1	-1.14960E-3	-8.36481E-2
+1.17965E+1	-9.51051E-1	-7.68131E-4	-8.36286E-2
+1.18112E+1	-9.46601E-1	-9.97013E-4	-8.36105E-2
+1.18260E+1	-9.41931E-1	+1.47397E-4	-8.35922E-2
+1.18407E+1	-9.37105E-1	-1.37848E-3	-8.35759E-2
+1.18555E+1	-9.32058E-1	+2.74139E-3	-8.35530E-2
+1.18702E+1	-9.26859E-1	+3.12286E-3	-8.35228E-2
+1.18850E+1	-9.21440E-1	+9.10336E-4	-8.35014E-2
+1.18997E+1	-9.15873E-1	+6.05160E-4	-8.34677E-2
+1.19144E+1	-9.10124E-1	+6.86126E-3	-8.34438E-2
+1.19292E+1	-9.04153E-1	+2.97027E-3	-8.34120E-2
+1.19439E+1	-8.98043E-1	+4.57245E-3	-8.33787E-2
+1.19587E+1	-8.91711E-1	+3.88580E-3	-8.33410E-2
+1.19734E+1	-8.85243E-1	+5.10650E-3	-8.33011E-2
+1.19882E+1	-8.78555E-1	+1.06292E-3	-8.32544E-2
+1.20029E+1	-8.71736E-1	+1.06292E-3	-8.32160E-2
+1.20177E+1	-8.64696E-1	+3.80951E-3	-8.31715E-2
+1.20324E+1	-8.57531E-1	-6.15543E-4	-8.31214E-2
+1.20472E+1	-8.50146E-1	+5.41168E-3	-8.30738E-2
+1.20619E+1	-8.42641E-1	+2.74139E-3	-8.30180E-2
+1.20766E+1	-8.34968E-1	+1.74957E-3	-8.29609E-2
+1.20914E+1	-8.27076E-1	+4.03839E-3	-8.28988E-2
+1.21061E+1	-8.19073E-1	+2.81768E-3	-8.28402E-2
+1.21209E+1	-8.10850E-1	+3.96209E-3	-8.27760E-2
+1.21356E+1	-8.02522E-1	+4.34356E-3	-8.27076E-2
+1.21504E+1	-7.93975E-1	+5.86944E-3	-8.26337E-2
+1.21651E+1	-7.85329E-1	+4.26727E-3	-8.25588E-2
+1.21799E+1	-7.76466E-1	+7.16644E-3	-8.24836E-2
+1.21946E+1	-7.67508E-1	+8.23455E-3	-8.24019E-2
+1.22094E+1	-7.58335E-1	+7.54791E-3	-8.23195E-2
+1.22241E+1	-7.49073E-1	+6.55609E-3	-8.22302E-2
+1.22388E+1	-7.39662E-1	+9.30267E-3	-8.21368E-2
+1.22536E+1	-7.30039E-1	+1.08285E-2	-8.20362E-2
+1.22683E+1	-7.20335E-1	+1.27359E-2	-8.19324E-2
+1.22831E+1	-7.10421E-1	+8.08197E-3	-8.18280E-2
+1.22978E+1	-7.00432E-1	+8.08197E-3	-8.17173E-2
+1.23126E+1	-6.90235E-1	+8.53973E-3	-8.16009E-2
+1.23273E+1	-6.79969E-1	+7.24273E-3	-8.14747E-2
+1.23421E+1	-6.69496E-1	+3.12286E-3	-8.13458E-2
+1.23568E+1	-6.58961E-1	+1.40329E-2	-8.12121E-2
+1.23716E+1	-6.48222E-1	+1.00656E-2	-8.10770E-2
+1.23863E+1	-6.37427E-1	+1.09811E-2	-8.09302E-2
+1.24010E+1	-6.26505E-1	+1.12863E-2	-8.07818E-2
+1.24158E+1	-6.15383E-1	+8.69232E-3	-8.06174E-2
+1.24305E+1	-6.04213E-1	+1.34988E-2	-8.04417E-2
+1.24453E+1	-5.92846E-1	+1.78476E-2	-8.02731E-2
+1.24600E+1	-5.81438E-1	+9.07379E-3	-8.00947E-2
+1.24748E+1	-5.69836E-1	+9.98932E-3	-7.98974E-2
+1.24895E+1	-5.58198E-1	+7.85309E-3	-7.96954E-2
+1.25043E+1	-5.46369E-1	+1.00656E-2	-7.94817E-2
+1.25190E+1	-5.34512E-1	+9.83673E-3	-7.92568E-2
+1.25338E+1	-5.22466E-1	+1.06760E-2	-7.90266E-2
+1.25485E+1	-5.10397E-1	+1.25070E-2	-7.87798E-2
+1.25633E+1	-4.98145E-1	+1.18967E-2	-7.85248E-2
+1.25780E+1	-4.85875E-1	+9.45526E-3	-7.82529E-2
+1.25927E+1	-4.73509E-1	+1.48721E-2	-7.79786E-2
+1.26075E+1	-4.60964E-1	+1.25070E-2	-7.76758E-2
+1.26222E+1	-4.48412E-1	+1.09811E-2	-7.73660E-2
+1.26370E+1	-4.35684E-1	+4.87762E-3	-7.70427E-2
+1.26517E+1	-4.22956E-1	+1.05234E-2	-7.67045E-2
+1.26665E+1	-4.10056E-1	+2.08993E-2	-7.63385E-2
+1.26812E+1	-3.97162E-1	+2.92917E-2	-7.59460E-2
+1.26960E+1	-3.84100E-1	+4.06595E-2	-7.55262E-2
+1.27107E+1	-3.71050E-1	+4.85178E-2	-7.50888E-2
+1.27255E+1	-3.57837E-1	+5.46976E-2	-7.46090E-2
+1.27402E+1	-3.44641E-1	+4.57712E-2	-7.41052E-2
+1.27549E+1	-3.31378E-1	+3.24960E-2	-7.35774E-2
+1.27697E+1	-3.17957E-1	+3.27249E-2	-7.30164E-2
+1.27844E+1	-3.04564E-1	+4.53134E-2	-7.24212E-2
+1.27992E+1	-2.91019E-1	+4.94333E-2	-7.17515E-2
+1.28139E+1	-2.77507E-1	+4.98910E-2	-7.10581E-2
+1.28287E+1	-2.63847E-1	+4.47031E-2	-7.03000E-2
+1.28434E+1	-2.50227E-1	+5.31717E-2	-6.95018E-2
+1.28582E+1	-2.36465E-1	+5.93515E-2	-6.86178E-2
+1.28729E+1	-2.22748E-1	+7.85776E-2	-6.76399E-2
+1.28877E+1	-2.08893E-1	+7.72043E-2	-6.65891E-2
+1.29024E+1	-1.95090E-1	+8.83432E-2	-6.54124E-2
+1.29171E+1	-1.81249E-1	+8.72751E-2	-6.41849E-2
+1.29319E+1	-1.67277E-1	+9.24631E-2	-6.28031E-2
+1.29466E+1	-1.53366E-1	+8.62070E-2	-6.13194E-2
+1.29614E+1	-1.39329E-1	+9.56674E-2	-5.96655E-2
+1.29761E+1	-1.25360E-1	+1.16038E-1	-5.78674E-2
+1.29909E+1	-1.11270E-1	+1.34196E-1	-5.58404E-2
+1.30056E+1	-9.72538E-2	+1.63264E-1	-5.35562E-2
+1.30204E+1	-8.31224E-2	+2.00114E-1	-5.10443E-2
+1.30351E+1	-6.90700E-2	+2.12397E-1	-4.81608E-2
+1.30499E+1	-5.49081E-2	+2.42915E-1	-4.48514E-2
+1.30646E+1	-4.08309E-2	+2.65040E-1	-4.10594E-2
+1.30793E+1	-2.67456E-2	+3.25312E-1	-3.66483E-2
+1.30941E+1	-1.25591E-2	+4.02522E-1	-3.12621E-2
+1.31088E+1	+1.53398E-3	+5.49311E-1	-2.43838E-2
+1.31236E+1	+1.57227E-2	+6.67643E-1	-1.55362E-2
+1.31383E+1	+2.98123E-2	+6.61921E-1	-5.74172E-3
+1.31531E+1	+4.39919E-2	+6.58259E-1	+4.03716E-3
+1.31678E+1	+5.80668E-2	+6.50172E-1	+1.36406E-2
+1.31826E+1	+7.22259E-2	+6.37812E-1	+2.31603E-2
+1.31973E+1	+8.62749E-2	+6.22477E-1	+3.24226E-2
+1.32121E+1	+1.00402E-1	+5.68080E-1	+4.14733E-2
+1.32268E+1	+1.14414E-1	+3.62391E-1	+4.52651E-2
+1.32415E+1	+1.28403E-1	+1.74861E-1	+4.95926E-2
+1.32563E+1	+1.42461E-1	+1.62654E-1	+5.34531E-2
+1.32710E+1	+1.56397E-1	+1.67918E-1	+5.67385E-2
+1.32858E+1	+1.70395E-1	+1.76386E-1	+5.96403E-2
+1.33005E+1	+1.84265E-1	+1.84779E-1	+6.22323E-2
+1.33153E+1	+1.98192E-1	+1.72114E-1	+6.46933E-2
+1.33300E+1	+2.11986E-1	+1.48310E-1	+6.68646E-2
+1.33448E+1	+2.25831E-1	+1.16114E-1	+6.88711E-2
+1.33595E+1	+2.39538E-1	+9.78036E-2	+7.06667E-2
+1.33743E+1	+2.53289E-1	+9.87192E-2	+7.23087E-2
+1.33890E+1	+2.66898E-1	+1.17564E-1	+7.38666E-2
+1.34038E+1	+2.80545E-1	+1.06043E-1	+7.53433E-2
+1.34185E+1	+2.94044E-1	+8.69699E-2	+7.66876E-2
+1.34332E+1	+3.07485E-1	+7.91879E-2	+7.78755E-2
+1.34480E+1	+3.20955E-1	+7.35422E-2	+7.90232E-2
+1.34627E+1	+3.34271E-1	+6.17929E-2	+8.00539E-2
+1.34775E+1	+3.47610E-1	+5.36295E-2	+8.10405E-2
+1.34922E+1	+3.60789E-1	+6.24033E-2	+8.19347E-2
+1.35070E+1	+3.73986E-1	+5.80545E-2	+8.28018E-2
+1.35217E+1	+3.87019E-1	+6.31662E-2	+8.36117E-2
+1.35365E+1	+4.00064E-1	+5.18747E-2	+8.43636E-2
+1.35512E+1	+4.12940E-1	+4.53134E-2	+8.50594E-2
+1.35660E+1	+4.25821E-1	+3.66922E-2	+8.57221E-2
+1.35807E+1	+4.38530E-1	+3.70737E-2	+8.63386E-2
+1.35954E+1	+4.51152E-1	+3.08176E-2	+8.69183E-2
+1.36102E+1	+4.63770E-1	+3.22671E-2	+8.74649E-2
+1.36249E+1	+4.76209E-1	+3.29538E-2	+8.79842E-2
+1.36397E+1	+4.88638E-1	+3.33353E-2	+8.84787E-2
+1.36544E+1	+5.00885E-1	+3.53189E-2	+8.89381E-2
+1.36692E+1	+5.13116E-1	+3.99728E-2	+8.93840E-2
+1.36839E+1	+5.25161E-1	+4.09647E-2	+8.98040E-2
+1.36987E+1	+5.37183E-1	+4.33298E-2	+9.02086E-2
+1.37134E+1	+5.49016E-1	+3.99728E-2	+9.05857E-2
+1.37282E+1	+5.60820E-1	+3.81418E-2	+9.09531E-2
+1.37429E+1	+5.72433E-1	+2.63925E-2	+9.12929E-2
+1.37576E+1	+5.83931E-1	+2.22726E-2	+9.16276E-2
+1.37724E+1	+5.95391E-1	+1.60928E-2	+9.19402E-2
+1.37871E+1	+6.06655E-1	+1.35751E-2	+9.22427E-2
+1.38019E+1	+6.17873E-1	+1.73898E-2	+9.25370E-2
+1.38166E+1	+6.28893E-1	+2.51718E-2	+9.28094E-2
+1.38314E+1	+6.39862E-1	+2.18912E-2	+9.30690E-2
+1.38461E+1	+6.50628E-1	+1.75424E-2	+9.33175E-2
+1.38609E+1	+6.61338E-1	+1.09811E-2	+9.35691E-2
+1.38756E+1	+6.71843E-1	+1.96786E-2	+9.37946E-2
+1.38904E+1	+6.82285E-1	+1.38803E-2	+9.40154E-2
+1.39051E+1	+6.92520E-1	+1.40329E-2	+9.42237E-2
+1.39198E+1	+7.02618E-1	+1.25833E-2	+9.44284E-2
+1.39346E+1	+7.12644E-1	+1.92209E-2	+9.46219E-2
+1.39493E+1	+7.22460E-1	+9.22638E-3	+9.48140E-2
+1.39641E+1	+7.32197E-1	+1.87631E-2	+9.49933E-2
+1.39788E+1	+7.41723E-1	+9.68414E-3	+9.51706E-2
+1.39936E+1	+7.51165E-1	+9.07379E-3	+9.53347E-2
+1.40083E+1	+7.60394E-1	+7.16644E-3	+9.54948E-2
+1.40231E+1	+7.69532E-1	+1.15915E-2	+9.56555E-2
+1.40378E+1	+7.78456E-1	+8.08197E-3	+9.57988E-2
+1.40526E+1	+7.87284E-1	+1.08285E-2	+9.59423E-2
+1.40673E+1	+7.95895E-1	+1.14389E-2	+9.60734E-2
+1.40820E+1	+8.04348E-1	+1.02182E-2	+9.61943E-2
+1.40968E+1	+8.12698E-1	+6.40350E-3	+9.63243E-2
+1.41115E+1	+8.20829E-1	+2.97027E-3	+9.64499E-2
+1.41263E+1	+8.28850E-1	+1.21255E-2	+9.65621E-2
+1.41410E+1	+8.36653E-1	+3.96209E-3	+9.66707E-2
+1.41558E+1	+8.44340E-1	+5.18280E-3	+9.67777E-2
+1.41705E+1	+8.51808E-1	+2.13104E-3	+9.68782E-2
+1.41853E+1	+8.59155E-1	+6.32721E-3	+9.69791E-2
+1.42000E+1	+8.66281E-1	+4.57245E-3	+9.70735E-2
+1.42148E+1	+8.73282E-1	+4.26727E-3	+9.71633E-2
+1.42295E+1	+8.80061E-1	+4.72503E-3	+9.72569E-2
+1.42442E+1	+8.86666E-1	+5.33538E-3	+9.73348E-2
+1.42590E+1	+8.93138E-1	+4.41986E-3	+9.74107E-2
+1.42737E+1	+8.99388E-1	+7.01385E-3	+9.74853E-2
+1.42885E+1	+9.05500E-1	+7.39532E-3	+9.75592E-2
+1.43032E+1	+9.11391E-1	+1.90216E-3	+9.76280E-2
+1.43180E+1	+9.17138E-1	+5.48797E-3	+9.76958E-2
+1.43327E+1	+9.22664E-1	+6.40350E-3	+9.77595E-2
+1.43475E+1	+9.28043E-1	+3.42804E-3	+9.78247E-2
+1.43622E+1	+9.33200E-1	+1.12863E-2	+9.78798E-2
+1.43770E+1	+9.38205E-1	+1.21551E-3	+9.79353E-2
+1.43917E+1	+9.42989E-1	-8.14853E-5	+9.79831E-2
+1.44065E+1	+9.47616E-1	+4.26727E-3	+9.80311E-2
+1.44212E+1	+9.52024E-1	+1.36810E-3	+9.80779E-2
+1.44359E+1	+9.56242E-1	-1.91254E-3	+9.81230E-2
+1.44507E+1	+9.60297E-1	+5.18280E-3	+9.81573E-2
+1.44654E+1	+9.64133E-1	+3.27545E-3	+9.81940E-2
+1.44802E+1	+9.67802E-1	-6.15543E-4	+9.82275E-2
+1.44949E+1	+9.71253E-1	+6.55609E-3	+9.82627E-2
+1.45097E+1	+9.74533E-1	-4.04877E-3	+9.82950E-2
+1.45244E+1	+9.77597E-1	-2.21772E-3	+9.83269E-2
+1.45392E+1	+9.80485E-1	-2.75177E-3	+9.83547E-2
+1.45539E+1	+9.83158E-1	+1.48721E-2	+9.83692E-2
+1.45687E+1	+9.85652E-1	-6.79535E-3	+9.83944E-2
+1.45834E+1	+9.87933E-1	+5.28866E-4	+9.84099E-2
+1.45981E+1	+9.90018E-1	+1.29181E-3	+9.84165E-2
+1.46129E+1	+9.91918E-1	-4.20136E-3	+9.84254E-2
+1.46276E+1	+9.93608E-1	+1.97845E-3	+9.84353E-2
+1.46424E+1	+9.95109E-1	+4.52572E-4	+9.84449E-2
+1.46571E+1	+9.96403E-1	+3.73321E-3	+9.84490E-2
+1.46719E+1	+9.97505E-1	-4.50653E-3	+9.84481E-2
+1.46866E+1	+9.98401E-1	+7.16644E-3	+9.84562E-2
+1.47014E+1	+9.99102E-1	+7.39532E-3	+9.84466E-2
+1.47161E+1	+9.99600E-1	-2.21772E-3	+9.84433E-2
+1.47309E+1	+9.99901E-1	+1.59698E-3	+9.84410E-2
