+3.00000E+6	+2.92398E+6	+1.88847E-1
+3.20000E+6	+3.14861E+6	+1.68869E-1
+3.40000E+6	+3.40136E+6	+1.56118E-1
+3.60000E+6	+3.64964E+6	+1.46346E-1
+3.80000E+6	+3.75657E+6	+1.34076E-1
+4.00000E+6	+3.94322E+6	+1.20788E-1
+4.20000E+6	+4.16667E+6	+1.07618E-1
+4.40000E+6	+4.34279E+6	+9.88770E-2
+4.60000E+6	+4.64253E+6	+9.12179E-2
+4.80000E+6	+4.84809E+6	+8.25837E-2
+5.00000E+6	+5.00000E+6	+7.34318E-2
+5.20000E+6	+5.10725E+6	+6.47740E-2
+5.40000E+6	+5.48246E+6	+5.79967E-2
+5.60000E+6	+5.79374E+6	+5.09741E-2
+5.80000E+6	+5.55556E+6	+4.40954E-2
+6.00000E+6	+5.80046E+6	+3.85277E-2
+6.20000E+6	+1.07759E+7	+3.22609E-2
+6.40000E+6	+1.19617E+7	+2.71937E-2
+6.60000E+6	+6.45995E+6	+2.37314E-2
+6.80000E+6	+7.14286E+6	+2.15095E-2
+7.00000E+6	+1.17925E+7	+2.11287E-2
+7.20000E+6	+5.63910E+7	+2.30476E-2
+7.40000E+6	+7.47384E+6	+2.72992E-2
+7.60000E+6	+7.44786E+6	+3.32886E-2
+7.80000E+6	+7.47757E+6	+3.85008E-2
+8.00000E+6	+1.49701E+7	+4.51636E-2
+8.20000E+6	+8.05153E+6	+5.22852E-2
+8.40000E+6	+8.47458E+6	+5.92938E-2
+8.60000E+6	+8.58124E+6	+6.71110E-2
+8.80000E+6	+8.98204E+6	+7.53265E-2
+9.00000E+6	+8.77193E+6	+8.32514E-2
+9.20000E+6	+9.48767E+6	+9.18139E-2
+9.40000E+6	+9.23361E+6	+1.01052E-1
+9.60000E+6	+9.65251E+6	+1.12356E-1
+9.80000E+6	+9.84252E+6	+1.25048E-1
+1.00000E+7	+9.88142E+6	+1.35968E-1
+1.02000E+7	+1.00604E+7	+1.47947E-1
+1.04000E+7	+1.05411E+7	+1.61548E-1
+1.06000E+7	+1.05042E+7	+1.77361E-1
+1.08000E+7	+1.07991E+7	+1.94460E-1
+1.10000E+7	+1.09890E+7	+2.10900E-1
+1.12000E+7	+1.12360E+7	+2.30018E-1
+1.14000E+7	+1.12867E+7	+2.53651E-1
+1.16000E+7	+1.15741E+7	+2.81720E-1
+1.18000E+7	+1.18203E+7	+3.11687E-1
+1.20000E+7	+1.19617E+7	+3.43958E-1
+1.22000E+7	+1.22249E+7	+3.81310E-1
+1.24000E+7	+1.23558E+7	+4.27787E-1
+1.26000E+7	+1.26050E+7	+4.86211E-1
+1.28000E+7	+1.27551E+7	+5.51349E-1
+1.30000E+7	+1.29310E+7	+6.23398E-1
+1.32000E+7	+1.32275E+7	+7.00957E-1
+1.34000E+7	+1.33690E+7	+7.82185E-1
+1.36000E+7	+1.35870E+7	+8.47396E-1
+1.38000E+7	+1.38889E+7	+8.66943E-1
+1.40000E+7	+1.40056E+7	+8.34458E-1
+1.42000E+7	+1.41777E+7	+7.65878E-1
+1.44000E+7	+1.44092E+7	+6.88036E-1
+1.46000E+7	+1.46628E+7	+6.14679E-1
+1.48000E+7	+1.48810E+7	+5.42260E-1
+1.50000E+7	+1.48810E+7	+4.80090E-1
+1.52000E+7	+1.51822E+7	+4.25464E-1
+1.54000E+7	+1.54004E+7	+3.82386E-1
+1.56000E+7	+1.56250E+7	+3.46633E-1
+1.58000E+7	+1.58228E+7	+3.15084E-1
+1.60000E+7	+1.59236E+7	+2.85248E-1
+1.62000E+7	+1.63043E+7	+2.59236E-1
+1.64000E+7	+1.62866E+7	+2.38501E-1
+1.66000E+7	+1.63399E+7	+2.18996E-1
+1.68000E+7	+1.67785E+7	+2.02202E-1
+1.70000E+7	+1.68539E+7	+1.85742E-1
+1.72000E+7	+1.73210E+7	+1.70549E-1
+1.74000E+7	+1.74825E+7	+1.57722E-1
+1.76000E+7	+1.76263E+7	+1.45715E-1
+1.78000E+7	+1.76471E+7	+1.34597E-1
+1.80000E+7	+1.80288E+7	+1.23135E-1
+1.82000E+7	+1.81159E+7	+1.11463E-1
+1.84000E+7	+1.83150E+7	+1.02278E-1
+1.86000E+7	+1.78571E+7	+9.38390E-2
+1.88000E+7	+1.84820E+7	+8.56378E-2
+1.90000E+7	+1.85185E+7	+7.74060E-2
+1.92000E+7	+1.91816E+7	+6.98696E-2
+1.94000E+7	+1.88442E+7	+6.24615E-2
+1.96000E+7	+1.96078E+7	+5.56437E-2
+1.98000E+7	+1.89394E+7	+4.89419E-2
+2.00000E+7	+1.93299E+7	+4.31051E-2
