+3.00000E+6	+3.01932E+6	+1.49975E-1
+3.20000E+6	+3.20102E+6	+1.60471E-1
+3.40000E+6	+3.39674E+6	+1.75730E-1
+3.60000E+6	+3.59195E+6	+1.95563E-1
+3.80000E+6	+3.81098E+6	+2.14408E-1
+4.00000E+6	+3.99361E+6	+2.29925E-1
+4.20000E+6	+4.18760E+6	+2.46561E-1
+4.40000E+6	+4.40141E+6	+2.71797E-1
+4.60000E+6	+4.59559E+6	+3.03964E-1
+4.80000E+6	+4.78469E+6	+3.34567E-1
+5.00000E+6	+4.99501E+6	+3.60252E-1
+5.20000E+6	+5.19211E+6	+3.76192E-1
+5.40000E+6	+5.39957E+6	+3.93364E-1
+5.60000E+6	+5.60957E+6	+4.08658E-1
+5.80000E+6	+5.79151E+6	+4.18797E-1
+6.00000E+6	+6.00000E+6	+4.19199E-1
+6.20000E+6	+6.20219E+6	+4.17213E-1
+6.40000E+6	+6.39386E+6	+4.18582E-1
+6.60000E+6	+6.59341E+6	+4.17847E-1
+6.80000E+6	+6.80581E+6	+4.13201E-1
+7.00000E+6	+7.00280E+6	+4.00144E-1
+7.20000E+6	+7.18735E+6	+3.83273E-1
+7.40000E+6	+7.39645E+6	+3.66890E-1
+7.60000E+6	+7.61035E+6	+3.41776E-1
+7.80000E+6	+7.79626E+6	+3.14160E-1
+8.00000E+6	+7.98722E+6	+2.85578E-1
+8.20000E+6	+8.18777E+6	+2.59821E-1
+8.40000E+6	+8.41751E+6	+2.39322E-1
+8.60000E+6	+8.60585E+6	+2.22040E-1
+8.80000E+6	+8.81834E+6	+2.05210E-1
+9.00000E+6	+9.02527E+6	+1.87549E-1
+9.20000E+6	+9.22509E+6	+1.71777E-1
+9.40000E+6	+9.39850E+6	+1.58924E-1
+9.60000E+6	+9.59693E+6	+1.47268E-1
+9.80000E+6	+9.76563E+6	+1.35708E-1
+1.00000E+7	+1.00200E+7	+1.24318E-1
+1.02000E+7	+1.02249E+7	+1.13940E-1
+1.04000E+7	+1.03734E+7	+1.04352E-1
+1.06000E+7	+1.05932E+7	+9.58797E-2
+1.08000E+7	+1.07296E+7	+8.77826E-2
+1.10000E+7	+1.09649E+7	+7.96540E-2
+1.12000E+7	+1.12613E+7	+7.25796E-2
+1.14000E+7	+1.13636E+7	+6.56723E-2
+1.16000E+7	+1.16279E+7	+5.92015E-2
+1.18000E+7	+1.16279E+7	+5.29416E-2
+1.20000E+7	+1.20773E+7	+4.83970E-2
+1.22000E+7	+1.20192E+7	+4.53521E-2
+1.24000E+7	+1.23153E+7	+4.25109E-2
+1.26000E+7	+1.25000E+7	+4.06592E-2
+1.28000E+7	+1.31579E+7	+4.12203E-2
+1.30000E+7	+1.31579E+7	+4.27309E-2
+1.32000E+7	+1.30208E+7	+4.59060E-2
+1.34000E+7	+1.35135E+7	+5.03354E-2
+1.36000E+7	+1.38122E+7	+5.48507E-2
+1.38000E+7	+1.37363E+7	+6.12289E-2
+1.40000E+7	+1.40845E+7	+6.80048E-2
+1.42000E+7	+1.39665E+7	+7.46490E-2
+1.44000E+7	+1.42450E+7	+8.25679E-2
+1.46000E+7	+1.45773E+7	+9.09676E-2
+1.48000E+7	+1.47929E+7	+1.00201E-1
+1.50000E+7	+1.49701E+7	+1.09872E-1
+1.52000E+7	+1.52905E+7	+1.19710E-1
+1.54000E+7	+1.53374E+7	+1.30699E-1
+1.56000E+7	+1.55925E+7	+1.43199E-1
+1.58000E+7	+1.56576E+7	+1.56394E-1
+1.60000E+7	+1.60085E+7	+1.69625E-1
+1.62000E+7	+1.61638E+7	+1.83930E-1
+1.64000E+7	+1.64835E+7	+2.00938E-1
+1.66000E+7	+1.66852E+7	+2.20307E-1
+1.68000E+7	+1.67504E+7	+2.40490E-1
+1.70000E+7	+1.70068E+7	+2.61866E-1
+1.72000E+7	+1.72117E+7	+2.84858E-1
+1.74000E+7	+1.74581E+7	+3.11751E-1
+1.76000E+7	+1.76554E+7	+3.42747E-1
+1.78000E+7	+1.77635E+7	+3.71336E-1
+1.80000E+7	+1.80412E+7	+3.87958E-1
+1.82000E+7	+1.82292E+7	+3.99528E-1
+1.84000E+7	+1.83824E+7	+4.10226E-1
+1.86000E+7	+1.85605E+7	+4.18100E-1
+1.88000E+7	+1.88501E+7	+4.22997E-1
+1.90000E+7	+1.89713E+7	+4.23295E-1
+1.92000E+7	+1.91816E+7	+4.21352E-1
+1.94000E+7	+1.94133E+7	+4.18528E-1
+1.96000E+7	+1.96078E+7	+4.13827E-1
+1.98000E+7	+1.97607E+7	+4.06174E-1
+2.00000E+7	+2.00000E+7	+3.94152E-1
