+3.00000E+6	+2.99401E+6	+1.49844E-1
+3.20000E+6	+3.18471E+6	+1.62253E-1
+3.40000E+6	+3.37838E+6	+1.80255E-1
+3.60000E+6	+3.58680E+6	+2.03895E-1
+3.80000E+6	+3.77644E+6	+2.26533E-1
+4.00000E+6	+3.98089E+6	+2.47402E-1
+4.20000E+6	+4.16667E+6	+2.72162E-1
+4.40000E+6	+4.40917E+6	+3.08085E-1
+4.60000E+6	+4.58716E+6	+3.54901E-1
+4.80000E+6	+4.78012E+6	+4.07629E-1
+5.00000E+6	+5.02008E+6	+4.67570E-1
+5.20000E+6	+5.19751E+6	+5.43702E-1
+5.40000E+6	+5.37634E+6	+6.56390E-1
+5.60000E+6	+5.58036E+6	+8.22225E-1
+5.80000E+6	+5.80046E+6	+1.05023E+0
+6.00000E+6	+5.95238E+6	+1.32472E+0
+6.20000E+6	+6.23441E+6	+1.53126E+0
+6.40000E+6	+6.40205E+6	+1.46472E+0
+6.60000E+6	+6.57895E+6	+1.19846E+0
+6.80000E+6	+6.79348E+6	+9.43923E-1
+7.00000E+6	+6.98324E+6	+7.47104E-1
+7.20000E+6	+7.20461E+6	+6.07078E-1
+7.40000E+6	+7.41840E+6	+5.12438E-1
+7.60000E+6	+7.58725E+6	+4.45295E-1
+7.80000E+6	+7.77605E+6	+3.88206E-1
+8.00000E+6	+8.00000E+6	+3.39581E-1
+8.20000E+6	+8.19672E+6	+2.99805E-1
+8.40000E+6	+8.44595E+6	+2.69180E-1
+8.60000E+6	+8.62069E+6	+2.44853E-1
+8.80000E+6	+8.80282E+6	+2.20964E-1
+9.00000E+6	+8.99820E+6	+1.98912E-1
+9.20000E+6	+9.24214E+6	+1.79649E-1
+9.40000E+6	+9.38086E+6	+1.63838E-1
+9.60000E+6	+9.65251E+6	+1.50158E-1
+9.80000E+6	+9.76563E+6	+1.36966E-1
+1.00000E+7	+1.00402E+7	+1.23484E-1
+1.02000E+7	+1.00806E+7	+1.09958E-1
+1.04000E+7	+1.06082E+7	+9.95478E-2
+1.06000E+7	+1.05042E+7	+9.03861E-2
+1.08000E+7	+1.07875E+7	+8.04932E-2
+1.10000E+7	+1.10294E+7	+7.10045E-2
+1.12000E+7	+1.16641E+7	+6.22803E-2
+1.14000E+7	+1.11359E+7	+5.38577E-2
+1.16000E+7	+1.17555E+7	+4.60580E-2
+1.18000E+7	+1.13636E+7	+3.84104E-2
+1.20000E+7	+1.25313E+7	+3.09914E-2
+1.22000E+7	+1.09649E+7	+2.44260E-2
+1.24000E+7	+1.28866E+7	+1.88490E-2
+1.26000E+7	+2.40385E+7	+1.44012E-2
+1.28000E+7	+9.80392E+7	+1.58499E-2
+1.30000E+7	+3.01205E+7	+1.84445E-2
+1.32000E+7	+1.34409E+7	+2.43320E-2
+1.34000E+7	+1.35501E+7	+3.08121E-2
+1.36000E+7	+1.40449E+7	+3.83210E-2
+1.38000E+7	+1.32626E+7	+4.63446E-2
+1.40000E+7	+1.38122E+7	+5.40372E-2
+1.42000E+7	+1.40845E+7	+6.24940E-2
+1.44000E+7	+1.38122E+7	+7.15466E-2
+1.46000E+7	+1.45419E+7	+8.23596E-2
+1.48000E+7	+1.44231E+7	+9.21688E-2
+1.50000E+7	+1.56250E+7	+1.02507E-1
+1.52000E+7	+1.51210E+7	+1.13580E-1
+1.54000E+7	+1.52439E+7	+1.27991E-1
+1.56000E+7	+1.54321E+7	+1.41907E-1
+1.58000E+7	+1.57563E+7	+1.56812E-1
+1.60000E+7	+1.60772E+7	+1.72286E-1
+1.62000E+7	+1.62338E+7	+1.89634E-1
+1.64000E+7	+1.63755E+7	+2.10473E-1
+1.66000E+7	+1.67485E+7	+2.33785E-1
+1.68000E+7	+1.68539E+7	+2.61384E-1
+1.70000E+7	+1.70648E+7	+2.91238E-1
+1.72000E+7	+1.71625E+7	+3.24810E-1
+1.74000E+7	+1.73812E+7	+3.67993E-1
+1.76000E+7	+1.76783E+7	+4.22199E-1
+1.78000E+7	+1.77936E+7	+4.87640E-1
+1.80000E+7	+1.81159E+7	+5.68757E-1
+1.82000E+7	+1.81818E+7	+6.70367E-1
+1.84000E+7	+1.83374E+7	+8.06278E-1
+1.86000E+7	+1.86567E+7	+9.73966E-1
+1.88000E+7	+1.87970E+7	+1.14741E+0
+1.90000E+7	+1.90114E+7	+1.23805E+0
+1.92000E+7	+1.92160E+7	+1.17966E+0
+1.94000E+7	+1.93924E+7	+1.02661E+0
+1.96000E+7	+1.95822E+7	+8.62946E-1
+1.98000E+7	+1.97889E+7	+7.24398E-1
+2.00000E+7	+2.00803E+7	+6.11379E-1
