+3.00000E+6	+2.98686E+6	+1.55497E-1
+3.20000E+6	+3.17662E+6	+1.61830E-1
+3.40000E+6	+3.44353E+6	+1.72297E-1
+3.60000E+6	+3.59712E+6	+1.87616E-1
+3.80000E+6	+3.77074E+6	+1.99633E-1
+4.00000E+6	+4.01929E+6	+2.07593E-1
+4.20000E+6	+4.19815E+6	+2.15885E-1
+4.40000E+6	+4.40917E+6	+2.29387E-1
+4.60000E+6	+4.62535E+6	+2.45456E-1
+4.80000E+6	+4.80307E+6	+2.59282E-1
+5.00000E+6	+5.05051E+6	+2.66810E-1
+5.20000E+6	+5.19751E+6	+2.73453E-1
+5.40000E+6	+5.39957E+6	+2.84460E-1
+5.60000E+6	+5.63063E+6	+2.95751E-1
+5.80000E+6	+5.76037E+6	+3.01630E-1
+6.00000E+6	+5.99520E+6	+2.99911E-1
+6.20000E+6	+6.20347E+6	+2.96357E-1
+6.40000E+6	+6.41026E+6	+2.94953E-1
+6.60000E+6	+6.63130E+6	+2.92790E-1
+6.80000E+6	+6.78426E+6	+2.86589E-1
+7.00000E+6	+6.92521E+6	+2.75641E-1
+7.20000E+6	+7.18391E+6	+2.61741E-1
+7.40000E+6	+7.39645E+6	+2.52371E-1
+7.60000E+6	+7.68049E+6	+2.42668E-1
+7.80000E+6	+7.77605E+6	+2.30532E-1
+8.00000E+6	+8.06452E+6	+2.17250E-1
+8.20000E+6	+8.19672E+6	+2.04420E-1
+8.40000E+6	+8.31486E+6	+1.93794E-1
+8.60000E+6	+8.60585E+6	+1.84698E-1
+8.80000E+6	+8.71080E+6	+1.74496E-1
+9.00000E+6	+8.96057E+6	+1.62833E-1
+9.20000E+6	+9.32836E+6	+1.53601E-1
+9.40000E+6	+9.39850E+6	+1.44365E-1
+9.60000E+6	+9.56023E+6	+1.38153E-1
+9.80000E+6	+9.78474E+6	+1.29710E-1
+1.00000E+7	+9.96016E+6	+1.21906E-1
+1.02000E+7	+1.01626E+7	+1.12530E-1
+1.04000E+7	+1.05895E+7	+1.06608E-1
+1.06000E+7	+1.06610E+7	+1.00877E-1
+1.08000E+7	+1.07759E+7	+9.58577E-2
+1.10000E+7	+1.07991E+7	+9.02365E-2
+1.12000E+7	+1.14155E+7	+8.48395E-2
+1.14000E+7	+1.13636E+7	+8.21636E-2
+1.16000E+7	+1.17925E+7	+7.90260E-2
+1.18000E+7	+1.18708E+7	+7.69175E-2
+1.20000E+7	+1.24378E+7	+7.49892E-2
+1.22000E+7	+1.20919E+7	+7.32169E-2
+1.24000E+7	+1.26263E+7	+7.38090E-2
+1.26000E+7	+1.29310E+7	+7.41777E-2
+1.28000E+7	+1.23762E+7	+7.51534E-2
+1.30000E+7	+1.31694E+7	+7.72749E-2
+1.32000E+7	+1.31579E+7	+7.95961E-2
+1.34000E+7	+1.35870E+7	+8.29522E-2
+1.36000E+7	+1.35796E+7	+8.69347E-2
+1.38000E+7	+1.35993E+7	+9.23272E-2
+1.40000E+7	+1.43130E+7	+9.71890E-2
+1.42000E+7	+1.42045E+7	+1.02486E-1
+1.44000E+7	+1.43899E+7	+1.09053E-1
+1.46000E+7	+1.46843E+7	+1.16927E-1
+1.48000E+7	+1.49254E+7	+1.25929E-1
+1.50000E+7	+1.51515E+7	+1.34054E-1
+1.52000E+7	+1.51976E+7	+1.43021E-1
+1.54000E+7	+1.52439E+7	+1.51856E-1
+1.56000E+7	+1.57729E+7	+1.62566E-1
+1.58000E+7	+1.56250E+7	+1.73370E-1
+1.60000E+7	+1.62690E+7	+1.84411E-1
+1.62000E+7	+1.60944E+7	+1.95495E-1
+1.64000E+7	+1.63399E+7	+2.08552E-1
+1.66000E+7	+1.65929E+7	+2.23023E-1
+1.68000E+7	+1.68161E+7	+2.37206E-1
+1.70000E+7	+1.68350E+7	+2.52059E-1
+1.72000E+7	+1.72216E+7	+2.64910E-1
+1.74000E+7	+1.73611E+7	+2.79886E-1
+1.76000E+7	+1.75029E+7	+2.96135E-1
+1.78000E+7	+1.77305E+7	+3.08762E-1
+1.80000E+7	+1.80288E+7	+3.19131E-1
+1.82000E+7	+1.81818E+7	+3.27952E-1
+1.84000E+7	+1.84275E+7	+3.34966E-1
+1.86000E+7	+1.87032E+7	+3.40580E-1
+1.88000E+7	+1.87500E+7	+3.41872E-1
+1.90000E+7	+1.90114E+7	+3.38249E-1
+1.92000E+7	+1.92308E+7	+3.30724E-1
+1.94000E+7	+1.92802E+7	+3.22950E-1
+1.96000E+7	+1.94301E+7	+3.13409E-1
+1.98000E+7	+1.99203E+7	+3.01083E-1
+2.00000E+7	+1.99468E+7	+2.87334E-1
