+5.45471E-1	+2.93639E-1	+4.09806E-1
+5.55496E-1	+2.97204E-1	+4.16804E-1
+5.64270E-1	+3.06319E-1	+4.28301E-1
+5.73044E-1	+3.17844E-1	+4.46261E-1
+5.98129E-1	+3.15886E-1	+4.43592E-1
+5.77591E-1	+3.15829E-1	+4.43495E-1
+5.74814E-1	+3.16312E-1	+4.44106E-1
+5.74982E-1	+3.15170E-1	+4.42341E-1
+5.72998E-1	+3.15842E-1	+4.43419E-1
+5.74966E-1	+3.13508E-1	+4.40113E-1
+5.63736E-1	+3.12706E-1	+4.38950E-1
+5.70099E-1	+3.12057E-1	+4.38034E-1
+5.67642E-1	+3.11474E-1	+4.37197E-1
+5.73334E-1	+3.09763E-1	+4.34762E-1
+5.67215E-1	+3.10250E-1	+4.35473E-1
+5.66864E-1	+3.09378E-1	+4.34272E-1
+5.64072E-1	+3.09671E-1	+4.34623E-1
+5.59341E-1	+3.09323E-1	+4.34148E-1
+5.70496E-1	+3.10226E-1	+4.35431E-1
+5.69016E-1	+3.08711E-1	+4.33268E-1
+5.55252E-1	+3.05465E-1	+4.28551E-1
+5.70557E-1	+3.09937E-1	+4.35021E-1
+5.62164E-1	+3.08904E-1	+4.33570E-1
+5.66086E-1	+3.10327E-1	+4.35550E-1
+5.67581E-1	+3.10132E-1	+4.35313E-1
+5.60928E-1	+3.09873E-1	+4.34890E-1
+5.64545E-1	+3.09263E-1	+4.34013E-1
+5.68924E-1	+3.11105E-1	+4.36652E-1
+5.66788E-1	+3.06323E-1	+4.29721E-1
+5.65399E-1	+3.08781E-1	+4.33355E-1
+5.66025E-1	+3.07217E-1	+4.31023E-1
+5.68878E-1	+3.10413E-1	+4.35599E-1
+5.65598E-1	+3.06762E-1	+4.30455E-1
+5.66605E-1	+3.08985E-1	+4.33607E-1
+5.68283E-1	+3.10431E-1	+4.35612E-1
+5.69214E-1	+3.08286E-1	+4.32608E-1
+5.67749E-1	+3.09883E-1	+4.34836E-1
+5.64224E-1	+3.07034E-1	+4.30763E-1
+5.65308E-1	+3.06104E-1	+4.29509E-1
+5.50339E-1	+3.01340E-1	+4.22732E-1
+5.56137E-1	+3.02259E-1	+4.23954E-1
+5.49591E-1	+3.00289E-1	+4.21160E-1
+5.64255E-1	+3.06679E-1	+4.30308E-1
+5.56061E-1	+3.00840E-1	+4.21923E-1
+5.50949E-1	+2.99731E-1	+4.20315E-1
+5.52170E-1	+2.99919E-1	+4.20617E-1
+5.49393E-1	+2.95729E-1	+4.14488E-1
+5.55588E-1	+2.97229E-1	+4.16769E-1
+5.43854E-1	+2.92722E-1	+4.10318E-1
+5.51102E-1	+2.96820E-1	+4.16207E-1
+5.52216E-1	+2.97209E-1	+4.16684E-1
+5.52567E-1	+2.97770E-1	+4.17516E-1
+5.33615E-1	+2.87592E-1	+4.02897E-1
+5.44662E-1	+2.90924E-1	+4.07610E-1
