+9.36111E-1	+5.83891E-1	+7.54572E-1
+9.21631E-1	+5.62598E-1	+7.84402E-1
+8.71750E-1	+5.32815E-1	+7.41744E-1
+8.15277E-1	+4.89337E-1	+6.82103E-1
+7.58743E-1	+4.31087E-1	+6.01461E-1
+6.76727E-1	+3.75000E-1	+5.20766E-1
+6.16577E-1	+3.18481E-1	+4.39612E-1
+5.02640E-1	+2.49404E-1	+3.42028E-1
+3.94470E-1	+1.78681E-1	+2.42007E-1
+3.04428E-1	+1.10905E-1	+1.42299E-1
+2.29843E-1	+5.53012E-2	+4.75375E-2
+2.29889E-1	+5.81253E-2	+5.45107E-2
+3.39600E-1	+1.12034E-1	+1.45149E-1
+3.92532E-1	+1.63536E-1	+2.19396E-1
+4.58893E-1	+2.12186E-1	+2.88177E-1
+5.18295E-1	+2.56537E-1	+3.52617E-1
+5.70358E-1	+2.88606E-1	+3.97597E-1
+5.89844E-1	+3.11335E-1	+4.30730E-1
+6.20132E-1	+3.25736E-1	+4.48802E-1
+6.16058E-1	+3.29278E-1	+4.56300E-1
+6.24207E-1	+3.24389E-1	+4.48721E-1
+5.98053E-1	+3.10065E-1	+4.28316E-1
+5.59494E-1	+2.86511E-1	+3.96183E-1
+5.07446E-1	+2.55407E-1	+3.48892E-1
+4.65179E-1	+2.19673E-1	+3.00464E-1
+4.06860E-1	+1.77711E-1	+2.41491E-1
+3.81180E-1	+1.41909E-1	+1.88568E-1
+3.02277E-1	+1.03187E-1	+1.30720E-1
+2.58545E-1	+7.22119E-2	+8.07601E-2
+2.63641E-1	+7.28759E-2	+8.09616E-2
+3.01636E-1	+9.40134E-2	+1.16768E-1
+3.20923E-1	+1.23935E-1	+1.62182E-1
+3.74512E-1	+1.53042E-1	+2.05607E-1
+4.12170E-1	+1.76633E-1	+2.39628E-1
+4.32434E-1	+1.93608E-1	+2.62666E-1
+4.49402E-1	+2.02895E-1	+2.77517E-1
+4.50348E-1	+2.06080E-1	+2.82015E-1
+4.47052E-1	+2.01244E-1	+2.74669E-1
+4.39667E-1	+1.90693E-1	+2.57054E-1
+4.02435E-1	+1.74560E-1	+2.36182E-1
+3.87329E-1	+1.59622E-1	+2.14399E-1
+3.73154E-1	+1.53512E-1	+2.05943E-1
+3.74924E-1	+1.56686E-1	+2.09581E-1
+3.96530E-1	+1.72142E-1	+2.32761E-1
+4.83994E-1	+2.30131E-1	+3.14338E-1
+5.56870E-1	+2.81166E-1	+3.86220E-1
+6.37985E-1	+3.37468E-1	+4.61003E-1
+7.21222E-1	+3.96730E-1	+5.45869E-1
+7.83478E-1	+4.55538E-1	+6.28237E-1
+8.44086E-1	+5.09297E-1	+7.05591E-1
+9.24957E-1	+5.58032E-1	+7.76350E-1
+9.89319E-1	+5.99206E-1	+8.28613E-1
+9.99985E-1	+6.32486E-1	+8.75819E-1
+9.99985E-1	+6.63895E-1	+9.12199E-1
+9.99985E-1	+6.83913E-1	+9.39243E-1
