+2.00000E+2	+2.50824E-1	+5.80804E-2	+2.42293E-2
+2.02000E+2	+2.39014E-1	+5.83335E-2	+2.46215E-2
+2.04000E+2	+2.40005E-1	+5.84780E-2	+2.54427E-2
+2.06000E+2	+2.48245E-1	+5.88593E-2	+2.59052E-2
+2.08000E+2	+2.22931E-1	+5.91061E-2	+3.11250E-2
+2.10000E+2	+2.38220E-1	+5.90248E-2	+2.71162E-2
+2.12000E+2	+2.39258E-1	+5.88429E-2	+2.80969E-2
+2.14000E+2	+2.35031E-1	+5.92311E-2	+2.86150E-2
+2.16000E+2	+2.58896E-1	+6.01369E-2	+2.97602E-2
+2.18000E+2	+2.43454E-1	+5.99531E-2	+3.04665E-2
+2.20000E+2	+2.39944E-1	+6.01141E-2	+3.06034E-2
+2.22000E+2	+2.72919E-1	+6.23057E-2	+3.14214E-2
+2.24000E+2	+2.53036E-1	+6.06246E-2	+3.25683E-2
+2.26000E+2	+2.45331E-1	+6.02885E-2	+3.39888E-2
+2.28000E+2	+2.43088E-1	+6.04978E-2	+3.51489E-2
+2.30000E+2	+2.59415E-1	+6.11071E-2	+3.66591E-2
+2.32000E+2	+2.53250E-1	+6.17293E-2	+3.83492E-2
+2.34000E+2	+2.66678E-1	+6.31176E-2	+3.83867E-2
+2.36000E+2	+2.47940E-1	+6.21087E-2	+4.03725E-2
+2.38000E+2	+2.64816E-1	+6.35663E-2	+4.29283E-2
+2.40000E+2	+2.65762E-1	+6.55206E-2	+4.64169E-2
+2.42000E+2	+2.52014E-1	+6.50970E-2	+4.87419E-2
+2.44000E+2	+2.68524E-1	+6.60628E-2	+5.06260E-2
+2.46000E+2	+2.83508E-1	+6.92042E-2	+5.28922E-2
+2.48000E+2	+2.66769E-1	+6.95794E-2	+5.58524E-2
+2.50000E+2	+2.73071E-1	+7.11564E-2	+5.95853E-2
+2.52000E+2	+2.76291E-1	+7.16597E-2	+6.23143E-2
+2.54000E+2	+2.91794E-1	+7.33239E-2	+6.48892E-2
+2.56000E+2	+3.08594E-1	+7.39184E-2	+6.79880E-2
+2.58000E+2	+2.79678E-1	+7.47520E-2	+7.08852E-2
+2.60000E+2	+3.47076E-1	+8.45814E-2	+7.49504E-2
+2.62000E+2	+2.98172E-1	+7.83593E-2	+7.84092E-2
+2.64000E+2	+3.07404E-1	+8.07390E-2	+8.15868E-2
+2.66000E+2	+3.63800E-1	+8.61500E-2	+8.53386E-2
+2.68000E+2	+2.90054E-1	+8.50224E-2	+9.08601E-2
+2.70000E+2	+4.05563E-1	+9.95898E-2	+9.71246E-2
+2.72000E+2	+3.22800E-1	+9.47486E-2	+1.04489E-1
+2.74000E+2	+3.29102E-1	+1.00859E-1	+1.15117E-1
+2.76000E+2	+4.09119E-1	+1.11221E-1	+1.26635E-1
+2.78000E+2	+5.38147E-1	+1.20559E-1	+1.37522E-1
+2.80000E+2	+4.46854E-1	+1.21745E-1	+1.44845E-1
+2.82000E+2	+5.16205E-1	+1.30531E-1	+1.51747E-1
+2.84000E+2	+3.62381E-1	+1.23553E-1	+1.54941E-1
+2.86000E+2	+3.75824E-1	+1.30734E-1	+1.67247E-1
+2.88000E+2	+4.11804E-1	+1.40435E-1	+1.80456E-1
+2.90000E+2	+4.00482E-1	+1.50898E-1	+1.98094E-1
+2.92000E+2	+5.44266E-1	+1.74724E-1	+2.31932E-1
+2.94000E+2	+4.65668E-1	+1.95760E-1	+2.65348E-1
+2.96000E+2	+5.84656E-1	+2.23250E-1	+3.03063E-1
+2.98000E+2	+5.72037E-1	+2.41461E-1	+3.30058E-1
+3.00000E+2	+8.00735E-1	+2.83116E-1	+3.84014E-1
+3.02000E+2	+7.33978E-1	+3.51061E-1	+4.87336E-1
+3.04000E+2	+8.70636E-1	+4.58045E-1	+6.41815E-1
+3.06000E+2	+9.08203E-1	+5.10025E-1	+7.14939E-1
+3.08000E+2	+8.48938E-1	+4.73930E-1	+6.65181E-1
+3.10000E+2	+7.48352E-1	+3.84078E-1	+5.37173E-1
+3.12000E+2	+6.56448E-1	+3.10144E-1	+4.29736E-1
+3.14000E+2	+5.86288E-1	+2.57482E-1	+3.54840E-1
+3.16000E+2	+4.93820E-1	+2.10052E-1	+2.86247E-1
+3.18000E+2	+4.54895E-1	+1.74112E-1	+2.32880E-1
+3.20000E+2	+4.21082E-1	+1.48476E-1	+1.94554E-1
+3.22000E+2	+3.91312E-1	+1.31285E-1	+1.67820E-1
+3.24000E+2	+3.72635E-1	+1.18963E-1	+1.48648E-1
+3.26000E+2	+3.47809E-1	+1.09921E-1	+1.33755E-1
+3.28000E+2	+3.52417E-1	+1.02122E-1	+1.20626E-1
+3.30000E+2	+3.21274E-1	+9.55633E-2	+1.09550E-1
+3.32000E+2	+3.18024E-1	+8.97077E-2	+9.94184E-2
+3.34000E+2	+3.09113E-1	+8.52106E-2	+9.06280E-2
+3.36000E+2	+3.10699E-1	+8.09823E-2	+8.30785E-2
+3.38000E+2	+2.87170E-1	+7.75581E-2	+7.62168E-2
+3.40000E+2	+2.97882E-1	+7.61943E-2	+6.99039E-2
+3.42000E+2	+2.82974E-1	+7.23305E-2	+6.40438E-2
+3.44000E+2	+2.72705E-1	+6.97942E-2	+5.94764E-2
+3.46000E+2	+2.71500E-1	+6.85544E-2	+5.64865E-2
+3.48000E+2	+2.66052E-1	+6.72651E-2	+5.24743E-2
+3.50000E+2	+2.72995E-1	+6.57257E-2	+4.91168E-2
+3.52000E+2	+2.65930E-1	+6.36278E-2	+4.51123E-2
+3.54000E+2	+2.75024E-1	+6.29180E-2	+4.10100E-2
+3.56000E+2	+2.76367E-1	+6.26803E-2	+3.60147E-2
+3.58000E+2	+3.09814E-1	+6.38234E-2	+3.17402E-2
+3.60000E+2	+2.49146E-1	+5.95618E-2	+3.04601E-2
+3.62000E+2	+4.84360E-1	+8.70064E-2	+3.23720E-2
+3.64000E+2	+2.83112E-1	+6.16422E-2	+3.49973E-2
+3.66000E+2	+2.53265E-1	+6.12182E-2	+3.59297E-2
+3.68000E+2	+2.72034E-1	+6.20091E-2	+3.78306E-2
+3.70000E+2	+2.56851E-1	+6.17048E-2	+3.67278E-2
+3.72000E+2	+2.62924E-1	+6.10882E-2	+3.83566E-2
+3.74000E+2	+2.68463E-1	+6.28675E-2	+4.41760E-2
+3.76000E+2	+3.00323E-1	+6.66885E-2	+4.98379E-2
+3.78000E+2	+2.73209E-1	+6.66873E-2	+5.17355E-2
+3.80000E+2	+2.74109E-1	+6.31053E-2	+4.02511E-2
+3.82000E+2	+2.84973E-1	+6.31731E-2	+2.96550E-2
+3.84000E+2	+2.75040E-1	+6.00687E-2	+2.44267E-2
+3.86000E+2	+3.30627E-1	+6.50837E-2	+2.28126E-2
+3.88000E+2	+2.47833E-1	+5.85414E-2	+2.37028E-2
+3.90000E+2	+3.62198E-1	+7.13343E-2	+2.61411E-2
+3.92000E+2	+3.63297E-1	+6.98200E-2	+3.12312E-2
+3.94000E+2	+4.03168E-1	+7.25790E-2	+3.72720E-2
+3.96000E+2	+2.97104E-1	+6.76227E-2	+4.28401E-2
+3.98000E+2	+2.77115E-1	+6.61259E-2	+4.67512E-2
+4.00000E+2	+3.34244E-1	+7.20046E-2	+4.71212E-2
+4.02000E+2	+2.79770E-1	+6.69523E-2	+5.17768E-2
+4.04000E+2	+2.88818E-1	+6.97655E-2	+5.50527E-2
+4.06000E+2	+4.48685E-1	+9.59492E-2	+6.10223E-2
+4.08000E+2	+3.22906E-1	+7.54852E-2	+6.38374E-2
+4.10000E+2	+3.79486E-1	+8.43537E-2	+6.80835E-2
+4.12000E+2	+4.59747E-1	+8.55959E-2	+7.25841E-2
+4.14000E+2	+4.46671E-1	+1.05610E-1	+8.50935E-2
+4.16000E+2	+4.23065E-1	+9.84643E-2	+8.63495E-2
+4.18000E+2	+4.26056E-1	+1.00595E-1	+9.91291E-2
+4.20000E+2	+5.16129E-1	+1.17521E-1	+1.23992E-1
+4.22000E+2	+3.48419E-1	+1.07419E-1	+1.29002E-1
+4.24000E+2	+4.28375E-1	+1.18104E-1	+1.40338E-1
+4.26000E+2	+4.51172E-1	+1.26911E-1	+1.50659E-1
+4.28000E+2	+4.26590E-1	+1.34953E-1	+1.67911E-1
+4.30000E+2	+3.99780E-1	+1.40186E-1	+1.81993E-1
+4.32000E+2	+4.25644E-1	+1.55658E-1	+2.04496E-1
+4.34000E+2	+4.93927E-1	+1.82168E-1	+2.40820E-1
+4.36000E+2	+5.17746E-1	+2.11715E-1	+2.88016E-1
+4.38000E+2	+5.67825E-1	+2.52636E-1	+3.48335E-1
+4.40000E+2	+7.28195E-1	+3.14338E-1	+4.33488E-1
+4.42000E+2	+7.73880E-1	+3.91975E-1	+5.47862E-1
+4.44000E+2	+9.45770E-1	+5.12930E-1	+7.17911E-1
+4.46000E+2	+9.98978E-1	+6.26667E-1	+8.82427E-1
+4.48000E+2	+9.99985E-1	+6.40110E-1	+9.01487E-1
+4.50000E+2	+9.96658E-1	+5.52856E-1	+7.76652E-1
+4.52000E+2	+8.78799E-1	+4.46752E-1	+6.25164E-1
+4.54000E+2	+7.27249E-1	+3.77689E-1	+5.28136E-1
+4.56000E+2	+6.50711E-1	+3.33384E-1	+4.64608E-1
+4.58000E+2	+6.11725E-1	+2.93279E-1	+4.06969E-1
+4.60000E+2	+5.77667E-1	+2.67604E-1	+3.69990E-1
+4.62000E+2	+5.42999E-1	+2.49410E-1	+3.43431E-1
+4.64000E+2	+5.18250E-1	+2.35021E-1	+3.22895E-1
+4.66000E+2	+4.98611E-1	+2.22770E-1	+3.04781E-1
+4.68000E+2	+5.11993E-1	+2.14775E-1	+2.93009E-1
+4.70000E+2	+4.73724E-1	+2.09554E-1	+2.84979E-1
+4.72000E+2	+4.75632E-1	+2.05932E-1	+2.79261E-1
+4.74000E+2	+4.66095E-1	+2.03419E-1	+2.75414E-1
+4.76000E+2	+4.75357E-1	+2.00000E-1	+2.70627E-1
+4.78000E+2	+4.63898E-1	+1.94397E-1	+2.61966E-1
+4.80000E+2	+4.57718E-1	+1.87686E-1	+2.51480E-1
+4.82000E+2	+4.50531E-1	+1.84557E-1	+2.47132E-1
+4.84000E+2	+4.58801E-1	+1.81814E-1	+2.43510E-1
+4.86000E+2	+4.55948E-1	+1.81910E-1	+2.43763E-1
+4.88000E+2	+4.81964E-1	+1.86792E-1	+2.50771E-1
+4.90000E+2	+4.80042E-1	+1.90926E-1	+2.57200E-1
+4.92000E+2	+4.69452E-1	+1.95029E-1	+2.63225E-1
+4.94000E+2	+4.77585E-1	+1.99918E-1	+2.70226E-1
+4.96000E+2	+4.98123E-1	+2.09289E-1	+2.84253E-1
+4.98000E+2	+4.88358E-1	+2.12983E-1	+2.89845E-1
+5.00000E+2	+5.14069E-1	+2.19619E-1	+2.98925E-1
+5.02000E+2	+5.08774E-1	+2.24222E-1	+3.06182E-1
+5.04000E+2	+5.09720E-1	+2.23059E-1	+3.04830E-1
+5.06000E+2	+5.41779E-1	+2.43170E-1	+3.33903E-1
+5.08000E+2	+5.74600E-1	+2.56133E-1	+3.53001E-1
+5.10000E+2	+6.07285E-1	+2.68891E-1	+3.71506E-1
+5.12000E+2	+6.22543E-1	+2.82599E-1	+3.91112E-1
+5.14000E+2	+6.28357E-1	+2.93279E-1	+4.06504E-1
+5.16000E+2	+6.26923E-1	+3.09555E-1	+4.29858E-1
+5.18000E+2	+6.60339E-1	+3.32451E-1	+4.63055E-1
+5.20000E+2	+7.00531E-1	+3.62024E-1	+5.05148E-1
+5.22000E+2	+7.52960E-1	+3.96086E-1	+5.54109E-1
+5.24000E+2	+8.00537E-1	+4.31921E-1	+6.04934E-1
+5.26000E+2	+8.45230E-1	+4.63557E-1	+6.50282E-1
+5.28000E+2	+8.82141E-1	+5.09684E-1	+7.15497E-1
+5.30000E+2	+9.55521E-1	+5.81246E-1	+8.16877E-1
+5.32000E+2	+9.99466E-1	+6.71132E-1	+9.44832E-1
+5.34000E+2	+9.99985E-1	+7.64340E-1	+1.07242E+0
+5.36000E+2	+9.99985E-1	+8.17022E-1	+1.14139E+0
+5.38000E+2	+9.99985E-1	+8.46379E-1	+1.17476E+0
+5.40000E+2	+9.99985E-1	+8.56867E-1	+1.18711E+0
+5.42000E+2	+9.99985E-1	+8.53455E-1	+1.18288E+0
+5.44000E+2	+9.99985E-1	+8.39003E-1	+1.16788E+0
+5.46000E+2	+9.99985E-1	+8.06286E-1	+1.12959E+0
+5.48000E+2	+9.99985E-1	+7.42134E-1	+1.04615E+0
+5.50000E+2	+9.99390E-1	+6.50702E-1	+9.17119E-1
+5.52000E+2	+9.54865E-1	+5.64686E-1	+7.93397E-1
+5.54000E+2	+8.63998E-1	+4.84837E-1	+6.80983E-1
+5.56000E+2	+8.04153E-1	+4.25145E-1	+5.95378E-1
+5.58000E+2	+7.20322E-1	+3.69430E-1	+5.15310E-1
+5.60000E+2	+6.80496E-1	+3.22232E-1	+4.47845E-1
+5.62000E+2	+6.12732E-1	+2.84907E-1	+3.93915E-1
+5.64000E+2	+5.95245E-1	+2.53056E-1	+3.48281E-1
+5.66000E+2	+5.38483E-1	+2.26308E-1	+3.09273E-1
+5.68000E+2	+5.05737E-1	+2.05305E-1	+2.78203E-1
+5.70000E+2	+4.71680E-1	+1.88885E-1	+2.53861E-1
+5.72000E+2	+4.47128E-1	+1.71623E-1	+2.27986E-1
+5.74000E+2	+4.35196E-1	+1.56835E-1	+2.05893E-1
+5.76000E+2	+4.09592E-1	+1.39546E-1	+1.79077E-1
+5.78000E+2	+3.87894E-1	+1.24701E-1	+1.55090E-1
+5.80000E+2	+3.69217E-1	+1.13661E-1	+1.35329E-1
+5.82000E+2	+3.68256E-1	+1.07354E-1	+1.26579E-1
+5.84000E+2	+3.44543E-1	+1.13060E-1	+1.36822E-1
+5.86000E+2	+3.77441E-1	+1.29881E-1	+1.64063E-1
+5.88000E+2	+4.14261E-1	+1.56341E-1	+2.04932E-1
+5.90000E+2	+4.75906E-1	+1.98830E-1	+2.69104E-1
+5.92000E+2	+5.85098E-1	+2.65251E-1	+3.65845E-1
+5.94000E+2	+6.98883E-1	+3.60559E-1	+5.03129E-1
+5.96000E+2	+8.67493E-1	+5.04029E-1	+7.07658E-1
+5.98000E+2	+9.99985E-1	+7.13357E-1	+1.00404E+0
+6.00000E+2	+9.99985E-1	+8.27516E-1	+1.15499E+0
+6.02000E+2	+9.99985E-1	+8.48228E-1	+1.17799E+0
+6.04000E+2	+9.99985E-1	+8.21812E-1	+1.14791E+0
+6.06000E+2	+9.99985E-1	+7.57126E-1	+1.06674E+0
+6.08000E+2	+9.99191E-1	+6.57813E-1	+9.26039E-1
+6.10000E+2	+9.42444E-1	+5.71589E-1	+8.03514E-1
+6.12000E+2	+9.20685E-1	+5.07264E-1	+7.11007E-1
+6.14000E+2	+8.38379E-1	+4.57416E-1	+6.41216E-1
+6.16000E+2	+8.08868E-1	+4.16508E-1	+5.81819E-1
+6.18000E+2	+7.40707E-1	+3.81751E-1	+5.32975E-1
+6.20000E+2	+6.88049E-1	+3.52044E-1	+4.90529E-1
+6.22000E+2	+9.99008E-1	+3.41273E-1	+4.54896E-1
+6.24000E+2	+6.56509E-1	+3.07526E-1	+4.24100E-1
+6.26000E+2	+7.33536E-1	+2.92491E-1	+3.98841E-1
+6.28000E+2	+6.40121E-1	+2.75039E-1	+3.78573E-1
+6.30000E+2	+5.81039E-1	+2.62317E-1	+3.60444E-1
+6.32000E+2	+5.52917E-1	+2.50910E-1	+3.44460E-1
+6.34000E+2	+5.34882E-1	+2.39957E-1	+3.28666E-1
+6.36000E+2	+5.42160E-1	+2.32379E-1	+3.17252E-1
+6.38000E+2	+5.19562E-1	+2.26588E-1	+3.08984E-1
+6.40000E+2	+5.08682E-1	+2.18912E-1	+2.97894E-1
+6.42000E+2	+4.99207E-1	+2.11691E-1	+2.87416E-1
+6.44000E+2	+4.89136E-1	+2.05328E-1	+2.77632E-1
+6.46000E+2	+5.01358E-1	+1.98589E-1	+2.67880E-1
+6.48000E+2	+4.68597E-1	+1.93698E-1	+2.60501E-1
+6.50000E+2	+4.60052E-1	+1.89040E-1	+2.54068E-1
+6.52000E+2	+4.52972E-1	+1.85517E-1	+2.47546E-1
+6.54000E+2	+4.58939E-1	+1.85322E-1	+2.47744E-1
+6.56000E+2	+4.62830E-1	+1.88330E-1	+2.52487E-1
+6.58000E+2	+4.49738E-1	+1.93151E-1	+2.59880E-1
+6.60000E+2	+4.78210E-1	+2.00634E-1	+2.71115E-1
+6.62000E+2	+5.07538E-1	+2.08590E-1	+2.83084E-1
+6.64000E+2	+4.89044E-1	+2.16723E-1	+2.94725E-1
+6.66000E+2	+5.43823E-1	+2.25733E-1	+3.06868E-1
+6.68000E+2	+5.30243E-1	+2.35416E-1	+3.22313E-1
+6.70000E+2	+5.39597E-1	+2.41604E-1	+3.31291E-1
+6.72000E+2	+5.23865E-1	+2.35504E-1	+3.22280E-1
+6.74000E+2	+5.38284E-1	+2.36124E-1	+3.22720E-1
+6.76000E+2	+5.24948E-1	+2.33845E-1	+3.19753E-1
+6.78000E+2	+5.45517E-1	+2.38839E-1	+3.27451E-1
+6.80000E+2	+5.58365E-1	+2.41061E-1	+3.30325E-1
+6.82000E+2	+5.52689E-1	+2.41090E-1	+3.30166E-1
+6.84000E+2	+5.57587E-1	+2.42693E-1	+3.32775E-1
+6.86000E+2	+5.61279E-1	+2.46807E-1	+3.38930E-1
+6.88000E+2	+5.54382E-1	+2.51182E-1	+3.45339E-1
+6.90000E+2	+5.76202E-1	+2.58944E-1	+3.56301E-1
+6.92000E+2	+5.83771E-1	+2.68436E-1	+3.69855E-1
+6.94000E+2	+6.06918E-1	+2.82245E-1	+3.89413E-1
+6.96000E+2	+6.18164E-1	+2.97430E-1	+4.11724E-1
+6.98000E+2	+6.39664E-1	+3.11729E-1	+4.32230E-1
+7.00000E+2	+6.81107E-1	+3.36408E-1	+4.67763E-1
+7.02000E+2	+7.13547E-1	+3.68234E-1	+5.13343E-1
+7.04000E+2	+7.46689E-1	+3.88687E-1	+5.42334E-1
+7.06000E+2	+7.46384E-1	+3.93884E-1	+5.50705E-1
+7.08000E+2	+6.84143E-1	+3.49067E-1	+4.85581E-1
+7.10000E+2	+5.62592E-1	+2.67279E-1	+3.68579E-1
+7.12000E+2	+4.76944E-1	+1.99359E-1	+2.68626E-1
+7.14000E+2	+4.20639E-1	+1.49837E-1	+1.94995E-1
+7.16000E+2	+3.98911E-1	+1.28518E-1	+1.60680E-1
+7.18000E+2	+3.30078E-1	+1.10268E-1	+1.31780E-1
+7.20000E+2	+3.20618E-1	+9.09140E-2	+9.74725E-2
+7.22000E+2	+3.13583E-1	+8.57638E-2	+8.75499E-2
+7.24000E+2	+3.25745E-1	+8.61753E-2	+8.83430E-2
+7.26000E+2	+3.21869E-1	+9.06594E-2	+9.70823E-2
+7.28000E+2	+3.57437E-1	+1.12065E-1	+1.35226E-1
+7.30000E+2	+4.03442E-1	+1.40256E-1	+1.78735E-1
+7.32000E+2	+4.61517E-1	+1.73264E-1	+2.30002E-1
+7.34000E+2	+5.09796E-1	+2.15554E-1	+2.92661E-1
+7.36000E+2	+5.59097E-1	+2.53860E-1	+3.49111E-1
+7.38000E+2	+6.52527E-1	+3.07089E-1	+4.24675E-1
+7.40000E+2	+7.42920E-1	+3.82321E-1	+5.34096E-1
+7.42000E+2	+8.39844E-1	+4.80274E-1	+6.72045E-1
+7.44000E+2	+9.52759E-1	+5.98582E-1	+8.42724E-1
+7.46000E+2	+9.98795E-1	+6.80944E-1	+9.59415E-1
+7.48000E+2	+9.99985E-1	+7.02834E-1	+9.89159E-1
+7.50000E+2	+9.99985E-1	+6.96863E-1	+9.80076E-1
+7.52000E+2	+9.99985E-1	+6.65074E-1	+9.35278E-1
+7.54000E+2	+9.99191E-1	+6.20790E-1	+8.71485E-1
+7.56000E+2	+9.70978E-1	+5.74889E-1	+8.08550E-1
+7.58000E+2	+9.18198E-1	+5.44815E-1	+7.65962E-1
+7.60000E+2	+9.13971E-1	+5.38308E-1	+7.56862E-1
+7.62000E+2	+9.53491E-1	+5.22381E-1	+7.33084E-1
+7.64000E+2	+9.67758E-1	+5.11664E-1	+7.17697E-1
+7.66000E+2	+8.65417E-1	+4.99435E-1	+7.01747E-1
+7.68000E+2	+9.80194E-1	+4.86342E-1	+6.76701E-1
+7.70000E+2	+8.58322E-1	+4.43319E-1	+6.19933E-1
+7.72000E+2	+7.93732E-1	+3.87627E-1	+5.40984E-1
+7.74000E+2	+6.34674E-1	+3.07817E-1	+4.27067E-1
+7.76000E+2	+7.12936E-1	+2.43309E-1	+3.21350E-1
+7.78000E+2	+7.48642E-1	+1.86503E-1	+2.23377E-1
+7.80000E+2	+4.63959E-1	+1.42853E-1	+1.74686E-1
+7.82000E+2	+3.79105E-1	+1.28883E-1	+1.61807E-1
+7.84000E+2	+4.14398E-1	+1.46332E-1	+1.88923E-1
+7.86000E+2	+4.42780E-1	+1.62098E-1	+2.12548E-1
+7.88000E+2	+4.45374E-1	+1.69846E-1	+2.24966E-1
+7.90000E+2	+6.60568E-1	+2.12425E-1	+2.71449E-1
+7.92000E+2	+6.28906E-1	+2.05153E-1	+2.77782E-1
+7.94000E+2	+5.04730E-1	+2.05106E-1	+2.77234E-1
+7.96000E+2	+4.84528E-1	+2.02846E-1	+2.74348E-1
+7.98000E+2	+4.72794E-1	+1.97187E-1	+2.65030E-1
+8.00000E+2	+5.28671E-1	+1.99721E-1	+2.66529E-1
+8.02000E+2	+5.27023E-1	+1.90057E-1	+2.51861E-1
+8.04000E+2	+5.86929E-1	+1.88341E-1	+2.40638E-1
+8.06000E+2	+4.65546E-1	+1.71412E-1	+2.25417E-1
+8.08000E+2	+4.34906E-1	+1.58474E-1	+2.06537E-1
+8.10000E+2	+4.05548E-1	+1.49296E-1	+1.94149E-1
+8.12000E+2	+3.88321E-1	+1.46526E-1	+1.89157E-1
+8.14000E+2	+3.97812E-1	+1.45176E-1	+1.87694E-1
+8.16000E+2	+4.95224E-1	+1.50722E-1	+1.88180E-1
+8.18000E+2	+4.65866E-1	+1.61073E-1	+2.05823E-1
+8.20000E+2	+4.80087E-1	+1.78542E-1	+2.34750E-1
+8.22000E+2	+5.38239E-1	+2.00817E-1	+2.67078E-1
+8.24000E+2	+6.07651E-1	+2.28791E-1	+3.07211E-1
+8.26000E+2	+6.25412E-1	+2.64939E-1	+3.62377E-1
+8.28000E+2	+6.18469E-1	+3.01931E-1	+4.18213E-1
+8.30000E+2	+7.28195E-1	+3.45273E-1	+4.79228E-1
+8.32000E+2	+7.32986E-1	+3.87720E-1	+5.42065E-1
+8.34000E+2	+8.10394E-1	+4.37251E-1	+6.11731E-1
+8.36000E+2	+9.99313E-1	+4.95412E-1	+6.86539E-1
+8.38000E+2	+9.42688E-1	+5.47595E-1	+7.68557E-1
+8.40000E+2	+9.91089E-1	+5.77021E-1	+8.10567E-1
+8.42000E+2	+9.71558E-1	+5.60466E-1	+7.87690E-1
+8.44000E+2	+9.15146E-1	+5.21142E-1	+7.32343E-1
+8.46000E+2	+8.35693E-1	+4.68525E-1	+6.57467E-1
+8.48000E+2	+7.86072E-1	+4.21598E-1	+5.90353E-1
+8.50000E+2	+7.42371E-1	+3.86808E-1	+5.40616E-1
+8.52000E+2	+6.95694E-1	+3.58694E-1	+4.99505E-1
+8.54000E+2	+6.75919E-1	+3.36376E-1	+4.66899E-1
+8.56000E+2	+6.33148E-1	+3.16684E-1	+4.39187E-1
+8.58000E+2	+7.74658E-1	+3.08731E-1	+4.23022E-1
+8.60000E+2	+6.16409E-1	+2.90170E-1	+4.00303E-1
+8.62000E+2	+6.05774E-1	+2.73757E-1	+3.77233E-1
+8.64000E+2	+5.78918E-1	+2.58548E-1	+3.55445E-1
+8.66000E+2	+5.61752E-1	+2.50129E-1	+3.43185E-1
+8.68000E+2	+5.56549E-1	+2.51400E-1	+3.44250E-1
+8.70000E+2	+5.55817E-1	+2.50839E-1	+3.44638E-1
+8.72000E+2	+6.16760E-1	+2.54002E-1	+3.46525E-1
+8.74000E+2	+5.84045E-1	+2.59199E-1	+3.56701E-1
+8.76000E+2	+5.97504E-1	+2.70940E-1	+3.72901E-1
+8.78000E+2	+5.80368E-1	+2.74040E-1	+3.77687E-1
+8.80000E+2	+5.94055E-1	+2.75620E-1	+3.79713E-1
+8.82000E+2	+6.03821E-1	+2.66129E-1	+3.66623E-1
+8.84000E+2	+5.55496E-1	+2.45659E-1	+3.35196E-1
+8.86000E+2	+5.32501E-1	+2.25005E-1	+3.06671E-1
+8.88000E+2	+4.89243E-1	+2.03587E-1	+2.75307E-1
+8.90000E+2	+5.48157E-1	+2.42715E-1	+3.32249E-1
+8.92000E+2	+7.15424E-1	+3.48883E-1	+4.85021E-1
+8.94000E+2	+8.06686E-1	+4.38248E-1	+6.14126E-1
+8.96000E+2	+9.19205E-1	+5.18374E-1	+7.25968E-1
+8.98000E+2	+9.65485E-1	+6.12047E-1	+8.52202E-1
+9.00000E+2	+9.99985E-1	+7.01505E-1	+9.87236E-1
+9.02000E+2	+9.99985E-1	+7.48976E-1	+1.05224E+0
+9.04000E+2	+9.99985E-1	+7.20862E-1	+1.01361E+0
+9.06000E+2	+9.74747E-1	+6.03975E-1	+8.47540E-1
+9.08000E+2	+8.50464E-1	+4.93293E-1	+6.90700E-1
+9.10000E+2	+7.45224E-1	+4.08231E-1	+5.71152E-1
+9.12000E+2	+6.60278E-1	+3.42157E-1	+4.75560E-1
+9.14000E+2	+5.91049E-1	+2.83935E-1	+3.92586E-1
+9.16000E+2	+5.29175E-1	+2.47140E-1	+3.38499E-1
+9.18000E+2	+5.29480E-1	+2.35803E-1	+3.22483E-1
+9.20000E+2	+5.36270E-1	+2.43699E-1	+3.32997E-1
+9.22000E+2	+6.03699E-1	+2.62940E-1	+3.61991E-1
+9.24000E+2	+6.30493E-1	+2.99304E-1	+4.13076E-1
+9.26000E+2	+7.08786E-1	+3.50363E-1	+4.87104E-1
+9.28000E+2	+7.84821E-1	+4.20487E-1	+5.86800E-1
+9.30000E+2	+8.99124E-1	+5.13851E-1	+7.20967E-1
+9.32000E+2	+9.96826E-1	+6.24107E-1	+8.76731E-1
+9.34000E+2	+9.99985E-1	+7.14779E-1	+1.00346E+0
+9.36000E+2	+9.99985E-1	+7.65450E-1	+1.07333E+0
+9.38000E+2	+9.99985E-1	+7.99863E-1	+1.10922E+0
+9.40000E+2	+9.99985E-1	+8.11552E-1	+1.13157E+0
+9.42000E+2	+9.99985E-1	+8.07987E-1	+1.12421E+0
+9.44000E+2	+9.99985E-1	+7.83218E-1	+1.09786E+0
+9.46000E+2	+9.99985E-1	+7.43579E-1	+1.04594E+0
+9.48000E+2	+9.99985E-1	+7.13280E-1	+1.00526E+0
+9.50000E+2	+9.99985E-1	+6.77217E-1	+9.53774E-1
+9.52000E+2	+9.89670E-1	+6.42028E-1	+9.03310E-1
+9.54000E+2	+9.73389E-1	+6.04468E-1	+8.51304E-1
+9.56000E+2	+9.42932E-1	+5.71291E-1	+8.04040E-1
+9.58000E+2	+9.25034E-1	+5.44418E-1	+7.65703E-1
+9.60000E+2	+9.09882E-1	+5.19703E-1	+7.30463E-1
+9.62000E+2	+8.73627E-1	+5.00740E-1	+7.03305E-1
+9.64000E+2	+8.63800E-1	+4.86126E-1	+6.82450E-1
+9.66000E+2	+8.42773E-1	+4.76523E-1	+6.68737E-1
+9.68000E+2	+8.49091E-1	+4.66008E-1	+6.51977E-1
+9.70000E+2	+8.33130E-1	+4.58561E-1	+6.41492E-1
+9.72000E+2	+8.84689E-1	+4.52982E-1	+6.31315E-1
+9.74000E+2	+8.22693E-1	+4.47538E-1	+6.27248E-1
+9.76000E+2	+8.13782E-1	+4.44274E-1	+6.20696E-1
+9.78000E+2	+8.29407E-1	+4.41010E-1	+6.15167E-1
+9.80000E+2	+8.01102E-1	+4.42074E-1	+6.18742E-1
+9.82000E+2	+8.16101E-1	+4.45777E-1	+6.23455E-1
+9.84000E+2	+8.27179E-1	+4.48496E-1	+6.25439E-1
+9.86000E+2	+8.81546E-1	+4.53950E-1	+6.34256E-1
+9.88000E+2	+8.21854E-1	+4.60956E-1	+6.43275E-1
+9.90000E+2	+8.45062E-1	+4.75236E-1	+6.64802E-1
+9.92000E+2	+9.60678E-1	+4.90071E-1	+6.83613E-1
+9.94000E+2	+9.07028E-1	+5.05059E-1	+7.08801E-1
+9.96000E+2	+9.78195E-1	+5.29284E-1	+7.41196E-1
+9.98000E+2	+9.23492E-1	+5.53921E-1	+7.77454E-1
+1.00000E+3	+9.45267E-1	+5.81644E-1	+8.18002E-1
